
DisplayName "Grand Noah Palace 2F"



EVENT   1
 PAGE   1
  250(bytes(0x04,0x08,0x6f,0x3a,0x0c,0x52,0x50,0x47,0x3a,0x3a,0x53,0x45,0x08,0x3a,0x0a,0x40,0x6e,0x61,0x6d,0x65,0x49,0x22,0x09,0x4d,0x6f,0x76,0x65,0x06,0x3a,0x06,0x45,0x54,0x3a,0x0b,0x40,0x70,0x69,0x74,0x63,0x68,0x69,0x69,0x3a,0x0c,0x40,0x76,0x6f,0x6c,0x75,0x6d,0x65,0x69,0x55))
  TeleportPlayer(0,382,39,12,0,0)
  0()



EVENT   2
 PAGE   1
  250(bytes(0x04,0x08,0x6f,0x3a,0x0c,0x52,0x50,0x47,0x3a,0x3a,0x53,0x45,0x08,0x3a,0x0a,0x40,0x6e,0x61,0x6d,0x65,0x49,0x22,0x09,0x4d,0x6f,0x76,0x65,0x06,0x3a,0x06,0x45,0x54,0x3a,0x0b,0x40,0x70,0x69,0x74,0x63,0x68,0x69,0x69,0x3a,0x0c,0x40,0x76,0x6f,0x6c,0x75,0x6d,0x65,0x69,0x55))
  TeleportPlayer(0,382,39,12,0,0)
  0()



EVENT   3
 PAGE   1
  250(bytes(0x04,0x08,0x6f,0x3a,0x0c,0x52,0x50,0x47,0x3a,0x3a,0x53,0x45,0x08,0x3a,0x0a,0x40,0x6e,0x61,0x6d,0x65,0x49,0x22,0x09,0x4d,0x6f,0x76,0x65,0x06,0x3a,0x06,0x45,0x54,0x3a,0x0b,0x40,0x70,0x69,0x74,0x63,0x68,0x69,0x69,0x3a,0x0c,0x40,0x76,0x6f,0x6c,0x75,0x6d,0x65,0x69,0x55))
  TeleportPlayer(0,382,39,12,0,0)
  0()



EVENT   4
 PAGE   1
  If(1,1001,0,25,2)
   If(1,1052,0,1,0)
    ChangeVariable(1052,1052,0,0,2)
    217()
    PictureDisplay(5,"80_grandnoa_st01",0,0,0,0,100,100,0,0)
    PictureMove(5,null,0,0,0,0,100,100,255,0,30,true)
    ShowMessageFace("grandnoa_fc1",0,0,2,1)
    ShowMessage("\\n<グランドノア女王>Welcome to my palace, Queen Sara.\nI'm glad to see you overcame the troubles you were going through.")
    ShowMessageFace("sara_fc1",1,0,2,2)
    ShowMessage("\\n<サラ>...Good to see you again, too.\nSadly, everything Sabasa suffered was due to my own inadequacies.")
    ShowMessageFace("grandnoa_fc1",0,0,2,3)
    ShowMessage("\\n<グランドノア女王>I heard you temporarily abdicated the throne, but then your parliament reinstated you as Queen?")
    ShowMessageFace("sara_fc1",1,0,2,4)
    ShowMessage("\\n<サラ>That's right. I still enjoy the loving support of the people of Sabasa. Our country is now a Constitutional Monarchy, with a parliament and a queen.")
    ShowMessageFace("sara_fc1",1,0,2,5)
    ShowMessage("\\n<サラ>Sabasa aside, I'm curious about the incident at Esta and its connection to Tartarus.")
    ShowMessageFace("grandnoa_fc1",0,0,2,6)
    ShowMessage("\\n<グランドノア女王>That's an interesting topic, but first, how about you introduce your companions?")
    ShowMessageFace("ruka_fc1",0,0,2,7)
    ShowMessage("\\n<ルカ>Umm... I'm...")
    ShowMessageFace("sara_fc1",1,0,2,8)
    ShowMessage("\\n<サラ>They're traveling heroes and experts when it comes to events surrounding Tartarus. Sabasa and San Ilia can vouch for their abilities.")
    ShowMessageFace("sara_fc1",1,0,2,9)
    ShowMessage("\\n<サラ>Therefore, we ask that you allow us to join the investigation into the disappearance of the residents of Esta. I promise it will be beneficial for your country as well.")
    ShowMessageFace("grandnoa_fc1",0,0,2,10)
    ShowMessage("\\n<グランドノア女王>............")
    PictureDisplay(5,"80_grandnoa_st02",0,0,0,0,100,100,255,0)
    ShowMessageFace("grandnoa_fc1",1,0,2,11)
    ShowMessage("\\n<グランドノア女王>Permission granted. I'll make the arrangements at--")
    241(bytes(0x04,0x08,0x6f,0x3a,0x0d,0x52,0x50,0x47,0x3a,0x3a,0x42,0x47,0x4d,0x08,0x3a,0x0a,0x40,0x6e,0x61,0x6d,0x65,0x49,0x22,0x0a,0x6b,0x69,0x6b,0x69,0x32,0x06,0x3a,0x06,0x45,0x54,0x3a,0x0c,0x40,0x76,0x6f,0x6c,0x75,0x6d,0x65,0x69,0x69,0x3a,0x0b,0x40,0x70,0x69,0x74,0x63,0x68,0x69,0x69))
    ShowMessageFace("",0,0,2,12)
    ShowMessage("\\n<???>A moment, Your Majesty.")
    PictureClear(5)
    Wait(60)
    250(bytes(0x04,0x08,0x6f,0x3a,0x0c,0x52,0x50,0x47,0x3a,0x3a,0x53,0x45,0x08,0x3a,0x0a,0x40,0x6e,0x61,0x6d,0x65,0x49,0x22,0x0d,0x6d,0x6f,0x6e,0x5f,0x77,0x61,0x72,0x70,0x06,0x3a,0x06,0x45,0x54,0x3a,0x0b,0x40,0x70,0x69,0x74,0x63,0x68,0x69,0x69,0x3a,0x0c,0x40,0x76,0x6f,0x6c,0x75,0x6d,0x65,0x69,0x55))
    ChangeSwitch(31,31,0)
    205(5,bytes(0x04,0x08,0x6f,0x3a,0x13,0x52,0x50,0x47,0x3a,0x3a,0x4d,0x6f,0x76,0x65,0x52,0x6f,0x75,0x74,0x65,0x09,0x3a,0x0c,0x40,0x72,0x65,0x70,0x65,0x61,0x74,0x46,0x3a,0x0f,0x40,0x73,0x6b,0x69,0x70,0x70,0x61,0x62,0x6c,0x65,0x46,0x3a,0x0a,0x40,0x77,0x61,0x69,0x74,0x54,0x3a,0x0a,0x40,0x6c,0x69,0x73,0x74,0x5b,0x07,0x6f,0x3a,0x15,0x52,0x50,0x47,0x3a,0x3a,0x4d,0x6f,0x76,0x65,0x43,0x6f,0x6d,0x6d,0x61,0x6e,0x64,0x07,0x3a,0x0a,0x40,0x63,0x6f,0x64,0x65,0x69,0x06,0x3a,0x10,0x40,0x70,0x61,0x72,0x61,0x6d,0x65,0x74,0x65,0x72,0x73,0x5b,0x00,0x6f,0x3b,0x0a,0x07,0x3b,0x0b,0x69,0x00,0x3b,0x0c,0x5b,0x00))
    ShowMessageFace("grandnoa_fc1",0,0,2,13)
    ShowMessage("\\n<グランドノア女王>Do you have an objection, Mephisto?")
    PictureDisplay(5,"80_mefist_st01",0,0,0,0,100,100,0,0)
    PictureMove(5,null,0,0,0,0,100,100,255,0,30,true)
    ShowMessageFace("mefist_fc1",0,0,2,14)
    ShowMessage("\\n<メフィスト>I wouldn't presume to second guess your decisions, Majesty... However, please allow me to introduce myself to the Hero Luka and his companions.")
    ShowMessageFace("mefist_fc1",0,0,2,15)
    ShowMessage("\\n<メフィスト>I am Mephisto, magical advisor to Grand Noah. I handle magical education and provide counsel to Her Majesty, the Queen.")
    ShowMessageFace("ruka_fc1",0,0,2,16)
    ShowMessage("\\n<ルカ>I am the Hero Luka. Nice to meet you...")
    If(0,4,0)
     ShowMessageFace("alice_fc5",0,0,2,17)
     ShowMessage("\\n<アリス>I'm his companion, Alice.")
     0()
    EndIf()
    If(0,5,0)
     ShowMessageFace("iriasu_fc4",0,0,2,18)
     ShowMessage("\\n<イリアス>Despite appearances, I am your Goddess Ilias, Creator of the World.")
     0()
    EndIf()
    ShowMessageFace("mefist_fc1",0,0,2,19)
    ShowMessage("\\n<メフィスト>Pleased to meet you, young heroes. Now, about you joining the Esta investigation team...")
    ShowMessageFace("mefist_fc1",0,0,2,20)
    ShowMessage("\\n<メフィスト>Needless to say, the Esta incident is of utmost concern to our country, especially given the rumors that it may have been the result of a covert military operation by Grangold.")
    ShowMessageFace("mefist_fc1",0,0,2,21)
    ShowMessage("\\n<メフィスト>In light of that, I wonder if we should involve outsiders in the investigation so casually...")
    PictureDisplay(6,"80_grandnoa_st01",0,0,-150,0,100,100,255,0)
    PictureDisplay(5,"80_mefist_st01",0,0,150,0,100,100,255,0)
    ShowMessageFace("grandnoa_fc1",0,0,2,22)
    ShowMessage("\\n<グランドノア女王>In other words, you oppose adding them to the investigation team?")
    ShowMessageFace("mefist_fc1",0,0,2,23)
    ShowMessage("\\n<メフィスト>I don't oppose it. Rather, I simply think it necessary for them to demonstrate their talents.")
    ShowMessageFace("mefist_fc1",0,0,2,24)
    ShowMessage("\\n<メフィスト>It just so happens that the Queen's Cup is being held in the Colosseum in three days time. Why don't you participate in the tournament and show us what you can do?")
    If(4,202,0)
     ShowMessageFace("bonny_fc1",0,0,2,25)
     ShowMessage("\\n<ボニー>We're going to fight in the Colosseum!?")
     0()
    EndIf()
    ShowMessageFace("mefist_fc1",0,0,2,26)
    ShowMessage("\\n<メフィスト>If Sabasa and San Ilia both vouch for you, surely winning a little tournament is child's play. Right, Queen Sara?")
    ShowMessageFace("sara_fc1",3,0,2,27)
    ShowMessage("\\n<サラ>Well, that's not...")
    ShowMessageFace("",0,0,2,28)
    ShowMessage("Sara glances over at me...")
    ShowChoices(strings("Nod confidently","Shake your head in silence","Complain"),0)
    IfPlayerPicksChoice(0,null)
     ShowMessageFace("",0,0,2,29)
     ShowMessage("I nod confidently to Sara!")
     ShowMessageFace("sara_fc1",1,0,2,30)
     ShowMessage("\\n<サラ>...We have no objections, assuming we're allowed into the investigation team if we demonstrate our strength in the tournament.")
     ShowMessageFace("mefist_fc1",0,0,2,31)
     ShowMessage("\\n<メフィスト>Excellent... Is that satisfactory to you, Your Majesty?")
     ShowMessageFace("grandnoa_fc1",0,0,2,32)
     ShowMessage("\\n<グランドノア女王>It is. Win the Queen's Cup, and I shall permit you to join the investigation team.")
     0()
    IfPlayerPicksChoice(1,null)
     ShowMessageFace("",0,0,2,33)
     ShowMessage("I silently shake my head back and forth...")
     ShowMessageFace("sara_fc1",2,0,2,34)
     ShowMessage("\\n<サラ>...We must decline.\nWinning a tournament seems an inappropriate condition for joining the investigation team.")
     ShowMessageFace("mefist_fc1",0,0,2,35)
     ShowMessage("\\n<メフィスト>Oh, how disappointing.\nIs that the level of commitment we can expect from your investigation?")
     ShowMessageFace("mefist_fc1",0,0,2,36)
     ShowMessage("\\n<メフィスト>If so, then perhaps we shouldn't let you...")
     If(0,4,0)
      ShowMessageFace("alice_fc5",2,0,2,37)
      ShowMessage("\\n<アリス>Hold on! You'll let us investigate if we win the tournament, right? I'll do it.")
      0()
     EndIf()
     If(0,5,0)
      ShowMessageFace("iriasu_fc4",7,0,2,38)
      ShowMessage("\\n<イリアス>Wait, you'll let us investigate if we win, correct? In that case, we'll defeat everyone who stands in our way, you included.")
      0()
     EndIf()
     ShowMessageFace("mefist_fc1",0,0,2,39)
     ShowMessage("\\n<メフィスト>So you're changing your minds?\nIs that all right, Your Majesty?")
     ShowMessageFace("grandnoa_fc1",0,0,2,40)
     ShowMessage("\\n<グランドノア女王>It is. Win the Queen's Cup, and I shall permit you to join the investigation team.")
     0()
    IfPlayerPicksChoice(2,null)
     ShowMessageFace("ruka_fc1",0,0,2,41)
     ShowMessage("\\n<ルカ>What does winning a tournament have to do with the investigation? Forcing us to do that just to join the team doesn't make any sense.")
     ShowMessageFace("mefist_fc1",0,0,2,42)
     ShowMessage("\\n<メフィスト>Oh, how disappointing.\nIs that the level of commitment we can expect from your investigation?")
     ShowMessageFace("mefist_fc1",0,0,2,43)
     ShowMessage("\\n<メフィスト>If so, then perhaps we shouldn't let you...")
     If(0,4,0)
      ShowMessageFace("alice_fc5",2,0,2,44)
      ShowMessage("\\n<アリス>Hold on! You'll let us investigate if we win the tournament, right? I'll do it.")
      0()
     EndIf()
     If(0,5,0)
      ShowMessageFace("iriasu_fc4",7,0,2,45)
      ShowMessage("\\n<イリアス>Wait, you'll let us investigate if we win, correct? In that case, we'll defeat everyone who stands in our way, you included.")
      0()
     EndIf()
     ShowMessageFace("mefist_fc1",0,0,2,46)
     ShowMessage("\\n<メフィスト>So you're changing your minds?\nIs that all right, Your Majesty?")
     ShowMessageFace("grandnoa_fc1",0,0,2,47)
     ShowMessage("\\n<グランドノア女王>It is. Win the Queen's Cup, and I shall permit you to join the investigation team.")
     0()
    404()
    ShowMessageFace("mefist_fc1",0,0,2,48)
    ShowMessage("\\n<メフィスト>As you wish, Your Majesty.\nI shall see you at the Colosseum three days hence.")
    PictureClear(5)
    PictureClear(6)
    Wait(60)
    250(bytes(0x04,0x08,0x6f,0x3a,0x0c,0x52,0x50,0x47,0x3a,0x3a,0x53,0x45,0x08,0x3a,0x0a,0x40,0x6e,0x61,0x6d,0x65,0x49,0x22,0x0d,0x6d,0x6f,0x6e,0x5f,0x77,0x61,0x72,0x70,0x06,0x3a,0x06,0x45,0x54,0x3a,0x0b,0x40,0x70,0x69,0x74,0x63,0x68,0x69,0x69,0x3a,0x0c,0x40,0x76,0x6f,0x6c,0x75,0x6d,0x65,0x69,0x55))
    ChangeSwitch(31,31,1)
    Wait(60)
    PictureDisplay(5,"80_grandnoa_st03",0,0,0,0,100,100,0,0)
    PictureMove(5,null,0,0,0,0,100,100,255,0,30,true)
    ShowMessageFace("grandnoa_fc1",2,0,2,49)
    ShowMessage("\\n<グランドノア女王>............")
    241(bytes(0x04,0x08,0x6f,0x3a,0x0d,0x52,0x50,0x47,0x3a,0x3a,0x42,0x47,0x4d,0x08,0x3a,0x0a,0x40,0x6e,0x61,0x6d,0x65,0x49,0x22,0x0c,0x63,0x61,0x73,0x74,0x6c,0x65,0x33,0x06,0x3a,0x06,0x45,0x54,0x3a,0x0c,0x40,0x76,0x6f,0x6c,0x75,0x6d,0x65,0x69,0x69,0x3a,0x0b,0x40,0x70,0x69,0x74,0x63,0x68,0x69,0x69))
    PictureDisplay(5,"80_grandnoa_st01",0,0,0,0,100,100,255,0)
    ShowMessageFace("grandnoa_fc1",0,0,2,50)
    ShowMessage("\\n<グランドノア女王>That concludes your audience.\nPlease do not fail to win the Queen's Cup.")
    ShowMessageFace("sara_fc1",0,0,2,51)
    ShowMessage("\\n<サラ>We promise that we shall be victorious.\nThank you for taking the time to see us.")
    ShowMessageFace("ruka_fc1",0,0,2,52)
    ShowMessage("\\n<ルカ>A martial arts tournament...")
    If(4,79,0)
     ShowMessageFace("nuruko_fc1",2,0,2,53)
     ShowMessage("\\n<ヌルコ>Kyu kyu...")
     0()
    EndIf()
    PictureClear(5)
    ShowMessageFace("",0,0,2,54)
    ShowMessage("Thus, we end up going along with Mephisto's proposal to enter the Queen's Cup at the Colosseum.")
    ChangeSwitch(100,100,0)
    EndEventProcessing()
    0()
   EndIf()
   If(1,1052,0,2,0)
    PictureDisplay(5,"80_grandnoa_st01",0,0,0,0,100,100,0,0)
    PictureMove(5,null,0,0,0,0,100,100,255,0,30,true)
    ShowMessageFace("grandnoa_fc1",0,0,2,55)
    ShowMessage("\\n<グランドノア女王>You need to first register for the tournament at the Colosseum's reception. After that, just win all your matches.")
    ShowMessageFace("grandnoa_fc1",0,0,2,56)
    ShowMessage("\\n<グランドノア女王>That concludes your audience.\nPlease do not fail to win the Queen's Cup.")
    PictureClear(5)
    EndEventProcessing()
    0()
   EndIf()
   If(1,1052,0,6,0)
    PictureDisplay(5,"80_grandnoa_st01",0,0,0,0,100,100,0,0)
    PictureMove(5,null,0,0,0,0,100,100,255,0,30,true)
    ShowMessageFace("grandnoa_fc1",0,0,2,57)
    ShowMessage("\\n<グランドノア女王>魔導学園の場所は、このグランドノア城の北。")
    ShowMessage("ただし、潜入にはくれぐれも気をつけて下さい。")
    ShowMessageFace("grandnoa_fc1",0,0,2,58)
    ShowMessage("\\n<グランドノア女王>学園内には、メフィストの生徒達が大勢いるはずです。")
    ShowMessage("彼女達は、修行中とはいえ強力な魔導師ですから。")
    ShowMessageFace("grandnoa_fc1",0,0,2,59)
    ShowMessage("\\n<グランドノア女王>それでは、任せましたよ...")
    ShowMessage("その間、あなた達を調査隊に加える手続きを進めておきます。")
    PictureClear(5)
    EndEventProcessing()
    0()
   EndIf()
   If(1,1052,0,7,0)
    PictureDisplay(5,"80_grandnoa_st01",0,0,0,0,100,100,0,0)
    PictureMove(5,null,0,0,0,0,100,100,255,0,30,true)
    ShowMessageFace("grandnoa_fc1",0,0,2,60)
    ShowMessage("\\n<グランドノア女王>魔導学園の場所は、このグランドノア城の北。")
    ShowMessage("ただし、潜入にはくれぐれも気をつけて下さい。")
    ShowMessageFace("grandnoa_fc1",0,0,2,61)
    ShowMessage("\\n<グランドノア女王>学園内には、メフィストの生徒達が大勢いるはずです。")
    ShowMessage("彼女達は、修行中とはいえ強力な魔導師ですから。")
    ShowMessageFace("grandnoa_fc1",0,0,2,62)
    ShowMessage("\\n<グランドノア女王>それでは、任せましたよ...")
    ShowMessage("その間、あなた達を調査隊に加える手続きを進めておきます。")
    PictureClear(5)
    EndEventProcessing()
    0()
   EndIf()
   If(1,1052,0,8,0)
    If(1,1062,0,4,2)
     PictureDisplay(5,"80_grandnoa_st01",0,0,0,0,100,100,0,0)
     PictureMove(5,null,0,0,0,0,100,100,255,0,30,true)
     ShowMessageFace("grandnoa_fc1",0,0,2,63)
     ShowMessage("\\n<グランドノア女王>さて、エスタへ調査に行ってもらえないでしょうか？")
     ShowMessage("以前の約束通り、調査団参加の手続きは済ませておきました。")
     ShowMessageFace("grandnoa_fc1",0,0,2,64)
     ShowMessage("\\n<グランドノア女王>貴方達が帰還した頃には、こちらの軍議も済んでいるはず。")
     ShowMessage("戦略を大幅に練り直し、貴方達の手も借りる事になるでしょう。")
     ShowMessageFace("grandnoa_fc1",0,0,2,65)
     ShowMessage("\\n<グランドノア女王>それでは、頼みましたよ...")
     ShowMessage("調査の件も、朗報を期待しています。")
     PictureClear(5)
     If(1,1054,0,6,2)
      ShowMessageFace("kerberos_fc1",0,0,2,66)
      ShowMessage("\\n<シーザー>なあ、私からの依頼を忘れていないか？")
      ShowMessage("ミノタウロス失踪事件の解決も、手伝ってくれ。")
      0()
     EndIf()
     If(1,1055,0,3,2)
      ShowMessageFace("durahan_fc1",0,0,2,67)
      ShowMessage("\\n<アーサー>もし、手が空いているのならば...")
      ShowMessage("ヤマタイの件も、手助けを願いたいのだが。")
      0()
     EndIf()
     PictureClear(5)
     EndEventProcessing()
     0()
    EndIf()
    If(1,1062,0,5,1)
     If(0,2156,1)
      ChangeSwitch(2156,2156,0)
      PictureDisplay(5,"80_grandnoa_st01",0,0,0,0,100,100,0,0)
      PictureMove(5,null,0,0,0,0,100,100,255,0,30,true)
      ShowMessageFace("grandnoa_fc1",0,0,2,68)
      ShowMessage("\\n<グランドノア女王>よくぞ戻ってきました、勇者ルカ。")
      ShowMessage("エスタの調査で、分かった事はありますか...？")
      ShowMessageFace("ruka_fc1",0,0,2,69)
      ShowMessage("\\n<ルカ>はい、実は――")
      ShowMessageFace("",0,0,2,70)
      ShowMessage("天使が絡んでいるらしい事を説明した...")
      ShowMessageFace("grandnoa_fc1",2,0,2,71)
      ShowMessage("\\n<グランドノア女王>なんと、天使が糸を引いていたとは...")
      ShowMessageFace("grandnoa_fc1",2,0,2,72)
      ShowMessage("\\n<グランドノア女王>...分かりました。")
      ShowMessage("貴重な報告に感謝します。")
      0()
     EndIf()
     If(1,1001,0,24,2)
      ShowMessageFace("grandnoa_fc1",0,0,2,73)
      ShowMessage("\\n<グランドノア女王>さて、グランゴルドへの反攻作戦の話ですが...")
      ShowMessage("もう少しばかり、準備と調整に時間を要します。")
      If(0,4,0)
       ShowMessageFace("alice_fc5",0,0,2,74)
       ShowMessage("\\n<アリス>ならばその間に、ウンディーネの泉に行くのはどうだ？")
       ShowMessage("四大精霊と契約を結ぶのも、目的の一つであったはず。")
       ShowMessageFace("alice_fc5",0,0,2,75)
       ShowMessage("\\n<アリス>ウンディーネの泉は、エスタから北にあるぞ。")
       ShowMessage("湖をぐるりと迂回する必要があるがな...")
       0()
      EndIf()
      If(0,5,0)
       ShowMessageFace("iriasu_fc4",2,0,2,76)
       ShowMessage("\\n<イリアス>ならば時間潰しに、ウンディーネの泉に行けばどうです？")
       ShowMessage("気は進みませんが、それも目的の一つなのでしょう？")
       ShowMessageFace("iriasu_fc4",2,0,2,77)
       ShowMessage("\\n<イリアス>ウンディーネの泉は、エスタから北。")
       ShowMessage("湖をぐるりと迂回する必要がありますが...")
       0()
      EndIf()
      If(1,1054,0,6,2)
       ShowMessageFace("kerberos_fc1",0,0,2,78)
       ShowMessage("\\n<シーザー>なあ、私からの依頼を忘れていないか？")
       ShowMessage("ミノタウロス失踪事件の解決も、手伝ってくれ。")
       0()
      EndIf()
      If(1,1055,0,3,2)
       ShowMessageFace("durahan_fc1",0,0,2,79)
       ShowMessage("\\n<アーサー>もし、手が空いているのならば...")
       ShowMessage("ヤマタイの件も、手助けを願いたいのだが。")
       0()
      EndIf()
      PictureClear(5)
      EndEventProcessing()
      0()
     EndIf()
     If(1,1001,0,25,0)
      If(1,1022,0,5,2)
       ShowMessageFace("grandnoa_fc1",2,0,2,80)
       ShowMessage("\\n<グランドノア女王>さて、グランゴルドへの反攻作戦ですが...")
       ShowMessage("同盟軍の一員であるサン・イリアの準備が整わないようですね。")
       ShowMessageFace("grandnoa_fc1",2,0,2,81)
       ShowMessage("\\n<グランドノア女王>向こうも、なにやら事情があるようです。")
       ShowMessage("よろしければ、あなた方に手助けをお願いできないでしょうか？")
       If(0,4,0)
        ShowMessageFace("alice_fc5",0,0,2,82)
        ShowMessage("\\n<アリス>仕方ない、サン・イリアに行ってみるか...")
        0()
       EndIf()
       If(0,5,0)
        ShowMessageFace("iriasu_fc4",2,0,2,83)
        ShowMessage("\\n<イリアス>仕方ありません、サン・イリアに行きましょうか...")
        0()
       EndIf()
       PictureClear(5)
       EndEventProcessing()
       0()
      EndIf()
      ChangeVariable(1052,1052,0,0,9)
      ChangeVariable(1063,1063,0,0,1)
      ShowMessageFace("grandnoa_fc1",0,0,2,84)
      ShowMessage("\\n<グランドノア女王>さて、グランゴルドへの反攻作戦の準備も整いました。")
      ShowMessage("以前に言った通り、あなた達にも手助けしてもらいます。")
      ShowMessageFace("grandnoa_fc1",0,0,2,85)
      ShowMessage("\\n<グランドノア女王>その作戦内容ですが――")
      PictureDisplay(6,"80_grandnoa_st01",0,0,-150,0,100,100,255,0)
      PictureDisplay(5,"80_mefist_st01",0,0,150,0,100,100,255,0)
      ShowMessageFace("mefist_fc1",0,0,2,86)
      ShowMessage("\\n<メフィスト>作戦の詳細に関しては、私が説明致しましょう。")
      ShowMessage("少し長くなりますので、部屋を移します。")
      If(0,6,0)
       ShowMessageFace("sonia_fc4",0,0,2,87)
       ShowMessage("\\n<ソニア>無礼なのは、相変わらずね...")
       0()
      Else()
       ShowMessageFace("ruka_fc1",0,0,2,88)
       ShowMessage("\\n<ルカ>............")
       0()
      EndIf()
      221()
      PictureClear(5)
      PictureClear(6)
      ChangeSwitch(31,31,0)
      TeleportPlayer(0,383,16,22,4,0)
      241(bytes(0x04,0x08,0x6f,0x3a,0x0d,0x52,0x50,0x47,0x3a,0x3a,0x42,0x47,0x4d,0x08,0x3a,0x0a,0x40,0x6e,0x61,0x6d,0x65,0x49,0x22,0x16,0x64,0x75,0x6e,0x67,0x65,0x6f,0x6e,0x5f,0x63,0x6f,0x6c,0x6f,0x73,0x73,0x65,0x75,0x6d,0x06,0x3a,0x06,0x45,0x54,0x3a,0x0c,0x40,0x76,0x6f,0x6c,0x75,0x6d,0x65,0x69,0x69,0x3a,0x0b,0x40,0x70,0x69,0x74,0x63,0x68,0x69,0x69))
      222()
      PictureDisplay(6,"80_grandnoa_st01",0,0,-150,0,100,100,0,0)
      PictureDisplay(5,"80_mefist_st01",0,0,150,0,100,100,0,0)
      PictureMove(6,null,0,0,-150,0,100,100,255,0,30,false)
      PictureMove(5,null,0,0,150,0,100,100,255,0,30,true)
      ShowMessageFace("mefist_fc1",0,0,2,89)
      ShowMessage("\\n<メフィスト>この作戦は、大戦に終止符を打つ壮大なもの...")
      ShowMessage("三大国同盟軍はもちろん、あらゆる勢力を総動員します。")
      If(0,4,0)
       ShowMessageFace("alice_fc5",0,0,2,90)
       ShowMessage("\\n<アリス>その「あらゆる勢力」とやらに、我々も含まれるわけだな。")
       0()
      EndIf()
      If(0,5,0)
       ShowMessageFace("iriasu_fc4",2,0,2,91)
       ShowMessage("\\n<イリアス>その「あらゆる勢力」に、我々も含まれるわけですね。")
       0()
      EndIf()
      ShowMessageFace("mefist_fc1",0,0,2,92)
      ShowMessage("\\n<メフィスト>ええ...そして、あなた達こそが作戦の主軸となるのです。")
      ShowMessage("ゆえに、心して聞いて下さいね。")
      ShowMessageFace("ruka_fc1",0,0,2,93)
      ShowMessage("\\n<ルカ>僕達が、主軸...！？")
      ShowMessageFace("mefist_fc1",0,0,2,94)
      ShowMessage("\\n<メフィスト>まずは、我が国、サン・イリア、サバサの三国同盟軍が動きます。")
      ShowMessage("大規模な決戦意図は、当然ながら敵にも伝わるでしょう。")
      ShowMessageFace("mefist_fc1",0,0,2,95)
      ShowMessage("\\n<メフィスト>前線のゴルド砦から、敵の主力軍が迎撃に現れる――")
      ShowMessage("いえ、釣り出されてしまうというべきですね。")
      If(0,4,0)
       ShowMessageFace("alice_fc5",0,0,2,96)
       ShowMessage("\\n<アリス>つまり、三国同盟軍は陽動か...")
       ShowMessage("オトリにしては、大盤振る舞いだな。")
       0()
      EndIf()
      If(0,5,0)
       ShowMessageFace("iriasu_fc4",2,0,2,97)
       ShowMessage("\\n<イリアス>三国同盟軍を、丸ごと陽動に費やすとは...")
       ShowMessage("ずいぶん、大胆な作戦ですね。")
       0()
      EndIf()
      ShowMessageFace("mefist_fc1",0,0,2,98)
      ShowMessage("\\n<メフィスト>ええ、敵の目は前線に注がれるでしょう。")
      ShowMessage("どう見ても、全戦力を動員し決戦を挑んできたのですから...")
      ShowMessageFace("mefist_fc1",0,0,2,99)
      ShowMessage("\\n<メフィスト>その隙を突き、あなた方はゴルド砦に潜入。")
      ShowMessage("砦を抜けて、敵の領地へと入り込むのです。")
      If(0,6,0)
       ShowMessageFace("sonia_fc3",2,0,2,100)
       ShowMessage("\\n<ソニア>私達が、単独で敵地に潜入！？")
       ShowMessage("それ、無茶なんじゃない！？")
       0()
      Else()
       ShowMessageFace("ruka_fc1",0,0,2,101)
       ShowMessage("\\n<ルカ>僕達が、単独で敵地に潜入だって！？")
       0()
      EndIf()
      ShowMessageFace("grandnoa_fc1",2,0,2,102)
      ShowMessage("\\n<グランドノア女王>当然ながら、こちらも全力で支援を行います。")
      ShowMessage("敵地にも、我が方の工作員が潜り込んでいますので。")
      ShowMessageFace("mefist_fc1",0,0,2,103)
      ShowMessage("\\n<メフィスト>ええ、女王陛下のおっしゃる通り...")
      ShowMessage("あなた達を捨て石にするつもりなど、全くありませんよ。")
      ShowMessageFace("mefist_fc1",0,0,2,104)
      ShowMessage("\\n<メフィスト>あなた達が、ゴルド砦を抜けた後は...")
      ShowMessage("そのまま、首都であるグランゴルドに向かってもらいます。")
      ShowMessageFace("mefist_fc1",0,0,2,105)
      ShowMessage("\\n<メフィスト>そこまでの道のりも、なかなかに険しいのですが...")
      ShowMessage("まずはゴルド砦を抜けてすぐ近くにある町、ゴッダールへ。")
      ShowMessageFace("mefist_fc1",0,0,2,106)
      ShowMessage("\\n<メフィスト>しかる後、ゴッダールに潜む我が方の工作員に接触して下さい。")
      ShowMessage("その人物は酒場にいますが、店主に特別な合図を送る事で――")
      ShowMessageFace("ruka_fc1",0,0,2,107)
      ShowMessage("\\n<ルカ>ちょ、ちょっと待って...")
      ShowMessage("メモっていい？")
      If(0,4,0)
       ShowMessageFace("alice_fc5",2,0,2,108)
       ShowMessage("\\n<アリス>極秘潜入任務で、メモを取るバカがいるか。")
       ShowMessage("細かい流れは、余がしっかり聞いておいてやる。")
       0()
      EndIf()
      If(0,5,0)
       ShowMessageFace("iriasu_fc4",2,0,2,109)
       ShowMessage("\\n<イリアス>極秘潜入任務でメモなど、アホですか...")
       ShowMessage("細かい流れは、私が把握しておきますので心配なく。")
       0()
      EndIf()
      ShowMessageFace("",0,0,2,110)
      ShowMessage("メフィストは、作戦の細かな流れを説明した――")
      ShowMessage("工作員と接触しつつ、首都グランゴルドをめざすようだ。")
      If(0,4,0)
       ShowMessageFace("alice_fc5",0,0,2,111)
       ShowMessage("\\n<アリス>そして、グランゴルドに着いた後だが...")
       ShowMessage("我々は、どうすればいいのだ？")
       0()
      EndIf()
      If(0,5,0)
       ShowMessageFace("iriasu_fc4",2,0,2,112)
       ShowMessage("\\n<イリアス>そして、グランゴルドに着いた後はどうするのです？")
       ShowMessage("我々だけで、グランゴルド城に攻め込めとでも？")
       0()
      EndIf()
      ShowMessageFace("mefist_fc1",0,0,2,113)
      ShowMessage("\\n<メフィスト>おそらく、グランゴルド王を惑わしていると思われる...")
      ShowMessage("クィーンアントを討って下さい。")
      ShowMessageFace("grandnoa_fc1",0,0,2,114)
      ShowMessage("\\n<グランドノア女王>あなた達の任務は、暗殺に非常に近いものです。")
      ShowMessage("普通の戦争ならば、こんな手は使うべきではないでしょう...")
      If(0,4,0)
       ShowMessageFace("alice_fc5",0,0,2,115)
       ShowMessage("\\n<アリス>当然だな...近代戦において、要人暗殺など下策の下策。")
       ShowMessage("敵の戦意は高まり、戦争が泥沼化するだけだ。")
       0()
      EndIf()
      If(0,5,0)
       ShowMessageFace("iriasu_fc4",2,0,2,116)
       ShowMessage("\\n<イリアス>当然の話ですね...近代戦において、要人暗殺など悪手の極み。")
       ShowMessage("敵の戦意は高まり、戦争の泥沼化を招きます。")
       0()
      EndIf()
      ShowMessageFace("grandnoa_fc1",0,0,2,117)
      ShowMessage("\\n<グランドノア女王>しかし今回の大戦は、普通の戦争とは異なります...")
      ShowMessage("魔王が裏で糸を引いているという、特有の事情があるのです。")
      ShowMessageFace("grandnoa_fc1",0,0,2,118)
      ShowMessage("\\n<グランドノア女王>その糸を断つというのが、この作戦の目的。")
      ShowMessage("作戦の成否は、あなた達の腕にかかっているのですよ。")
      If(0,6,0)
       ShowMessageFace("sonia_fc4",0,0,2,119)
       ShowMessage("\\n<ソニア>うわぁ、すごいプレッシャー...")
       ShowMessage("私達が失敗したら、グランドノアも大ピンチなのよね...")
       0()
      Else()
       ShowMessageFace("ruka_fc1",0,0,2,120)
       ShowMessage("\\n<ルカ>それは、すごいプレッシャーだね...")
       0()
      EndIf()
      ShowMessageFace("mefist_fc1",0,0,2,121)
      ShowMessage("\\n<メフィスト>作戦が失敗した場合、あなた達は我が国に関係ないと突っぱねます。")
      ShowMessage("ただの旅人が勝手にやったテロとなりますので、ご心配なく。")
      If(0,6,0)
       ShowMessageFace("sonia_fc3",2,0,2,122)
       ShowMessage("\\n<ソニア>えっ！？")
       0()
      Else()
       ShowMessageFace("ruka_fc1",0,0,2,123)
       ShowMessage("\\n<ルカ>えっ！？")
       0()
      EndIf()
      ShowMessageFace("grandnoa_fc1",0,0,2,124)
      ShowMessage("\\n<グランドノア女王>しかし、そうなれば...")
      ShowMessage("囮であった三国同盟軍が、力押しの決戦を挑むしかなくなります。")
      ShowMessageFace("grandnoa_fc1",0,0,2,125)
      ShowMessage("\\n<グランドノア女王>大戦が終わるまで、どれだけの命が失われるか...")
      ShowMessage("もはや、見当もつきません。")
      If(0,4,0)
       ShowMessageFace("alice_fc5",0,0,2,126)
       ShowMessage("\\n<アリス>我々の存在は奇貨であり、失敗すれば普通に決戦...か。")
       ShowMessage("余も為政者、そのくらいの政治判断は理解している。")
       ShowMessageFace("alice_fc5",2,0,2,127)
       ShowMessage("\\n<アリス>だが、敵地での支援はしっかり行ってもらう。")
       ShowMessage("早い段階で切り捨てるようなら、我々も命は張れんぞ。")
       0()
      EndIf()
      If(0,5,0)
       ShowMessageFace("iriasu_fc4",2,0,2,128)
       ShowMessage("\\n<イリアス>我々が失敗すれば、普通に戦争を続ける...という事ですか。")
       ShowMessage("まあ、それくらいの政治判断は織り込み済みでしょうね。")
       ShowMessageFace("iriasu_fc4",7,0,2,129)
       ShowMessage("\\n<イリアス>ですが、敵地での支援はしっかりやってもらいますよ。")
       ShowMessage("適当なところで切り捨てようなど、断じて許しません。")
       0()
      EndIf()
      ShowMessageFace("mefist_fc1",0,0,2,130)
      ShowMessage("\\n<メフィスト>ええ、それは必ず...")
      ShowMessage("人員や物資の補給も、作戦の各段階で行う事を約束します。")
      ShowMessageFace("mefist_fc1",0,0,2,131)
      ShowMessage("\\n<メフィスト>それではまず、ゴルド砦への侵入ですね。")
      ShowMessage("作戦の第一段階にあたり、助っ人を用意しました。")
      ShowMessageFace("mefist_fc1",0,0,2,132)
      ShowMessage("\\n<メフィスト>リマ村の廃墟にて、その助っ人と合流して下さい。")
      ShowMessage("エスタから道に沿って北西に進めば、リマ村に着くはずです。")
      If(0,6,0)
       ShowMessageFace("sonia_fc2",2,0,2,133)
       ShowMessage("\\n<ソニア>リマ村って...数年前、ゴルド軍に滅ぼされた村よね。")
       ShowMessage("村人の多くが虐殺されたって話だけど...")
       0()
      Else()
       ShowMessageFace("ruka_fc1",0,0,2,134)
       ShowMessage("\\n<ルカ>リマ村って...数年前、ゴルド軍に滅ぼされた村だよね。")
       ShowMessage("村人の多くが虐殺されたって話だけど...")
       0()
      EndIf()
      ShowMessageFace("grandnoa_fc1",2,0,2,135)
      ShowMessage("\\n<グランドノア女王>ええ...その村の光景、目に焼き付けておいて下さい。")
      ShowMessage("魔王に操られたゴルド軍は、あそこまでの蛮行を為すのです。")
      ShowMessageFace("grandnoa_fc1",2,0,2,136)
      ShowMessage("\\n<グランドノア女王>あの悲劇が繰り返される前に、")
      ShowMessage("グランゴルドを止めねばなりません。")
      ShowMessageFace("grandnoa_fc1",2,0,2,137)
      ShowMessage("\\n<グランドノア女王>全ては、あなた達の働きにかかっているのです...")
      ShowMessage("それをお忘れなきよう。")
      ShowMessageFace("ruka_fc1",0,0,2,138)
      ShowMessage("\\n<ルカ>分かりました、お任せを！")
      ShowMessageFace("",0,0,2,139)
      ShowMessage("こうして、作戦の説明は終わった。")
      ShowMessage("まずは、エスタ北西のリマ村で助っ人と合流だ――")
      If(0,4,0)
       ShowMessageFace("alice_fc5",0,0,2,140)
       ShowMessage("\\n<アリス>ところで、その助っ人とは何者なのだ？")
       ShowMessage("足を引っ張るような程度の者ならば困るぞ...")
       0()
      EndIf()
      If(0,5,0)
       ShowMessageFace("iriasu_fc4",2,0,2,141)
       ShowMessage("\\n<イリアス>ところで、その助っ人とは何者なのです？")
       ShowMessage("足を引っ張られては困るのですが...")
       0()
      EndIf()
      ShowMessageFace("mefist_fc1",0,0,2,142)
      ShowMessage("\\n<メフィスト>心配はありません、文句のない猛者ですよ。")
      ShowMessage("それは会ってみれば分かる事です...")
      If(0,6,0)
       ShowMessageFace("sonia_fc2",2,0,2,143)
       ShowMessage("\\n<ソニア>その言い方...ひょっとして、私達の知ってる人？")
       0()
      EndIf()
      ShowMessageFace("mefist_fc1",0,0,2,144)
      ShowMessage("\\n<メフィスト>ふふっ...そのはずです。")
      ShowMessageFace("ruka_fc1",0,0,2,145)
      ShowMessage("\\n<ルカ>分かりました...")
      ShowMessage("それじゃあ、行こう！")
      PictureClear(5)
      PictureClear(6)
      ShowMessageFace("",0,0,2,146)
      ShowMessage("まずはエスタ北西のリマ村に行き、助っ人に会う事。")
      ShowMessage("それが、グランゴルドに対する反攻作戦の狼煙となる。")
      ShowMessageFace("",0,0,2,147)
      ShowMessage("入念に準備し、作戦に赴こう。")
      ShowMessage("僕達の肩には、世界の平和がかかっているのだ――")
      221()
      ChangeSwitch(31,31,1)
      TeleportPlayer(0,382,39,12,2,0)
      222()
      EndEventProcessing()
      0()
     EndIf()
     0()
    EndIf()
    0()
   EndIf()
   If(1,1052,0,9,1)
    If(1,1063,0,1,0)
     PictureDisplay(5,"80_grandnoa_st01",0,0,0,0,100,100,0,0)
     PictureMove(5,null,0,0,0,0,100,100,255,0,30,true)
     ShowMessageFace("grandnoa_fc1",0,0,2,148)
     ShowMessage("\\n<グランドノア女王>すでに同盟軍は出陣の準備を始めています。")
     ShowMessage("あなた達が協力者に接触する事が、進軍開始の合図。")
     ShowMessageFace("grandnoa_fc1",0,0,2,149)
     ShowMessage("\\n<グランドノア女王>この作戦、あなた達の働きにかかっています。")
     ShowMessage("必ずや、グランゴルドを操る魔王の企てを破るのです。")
     PictureClear(5)
     EndEventProcessing()
     0()
    EndIf()
    If(1,1063,0,2,1)
     PictureDisplay(5,"80_grandnoa_st01",0,0,0,0,100,100,0,0)
     PictureMove(5,null,0,0,0,0,100,100,255,0,30,true)
     ShowMessageFace("grandnoa_fc1",0,0,2,150)
     ShowMessage("\\n<グランドノア女王>おや、どうしました？")
     ShowMessage("何か計画に不備でもあったのですか...？")
     ShowMessageFace("grandnoa_fc1",0,0,2,151)
     ShowMessage("\\n<グランドノア女王>この作戦、あなた達の働きにかかっています。")
     ShowMessage("必ずや、グランゴルドを操る魔王の企てを破るのです。")
     PictureClear(5)
     EndEventProcessing()
     0()
    EndIf()
    0()
   EndIf()
   0()
  EndIf()
  If(1,1001,0,26,0)
   PictureDisplay(5,"80_grandnoa_st01",0,0,0,0,100,100,0,0)
   PictureMove(5,null,0,0,0,0,100,100,255,0,30,true)
   ShowMessageFace("grandnoa_fc1",2,0,2,152)
   ShowMessage("\\n<グランドノア女王>グランゴルド王はあなた達に依頼したい事があるとか。")
   ShowMessage("なにやら、領内に妖魔の不審な動きがあるそうです。")
   ShowMessageFace("grandnoa_fc1",0,0,2,153)
   ShowMessage("\\n<グランドノア女王>こちらで何かあれば、メフィストを通じて連絡します。")
   ShowMessage("どうか、世界のため力を尽くして下さいね。")
   PictureClear(5)
   EndEventProcessing()
   0()
  EndIf()
  If(1,1001,0,27,1)
   If(1,1001,0,28,2)
    PictureDisplay(5,"80_grandnoa_st01",0,0,0,0,100,100,0,0)
    PictureMove(5,null,0,0,0,0,100,100,255,0,30,true)
    ShowMessageFace("grandnoa_fc1",2,0,2,154)
    ShowMessage("\\n<グランドノア女王>魔王の宣戦布告以来、特に大きな動きはありません。")
    ShowMessage("しかし、いつまでも平穏が続くとも思えませんね...")
    ShowMessageFace("grandnoa_fc1",0,0,2,155)
    ShowMessage("\\n<グランドノア女王>こちらで何かあれば、メフィストを通じて連絡します。")
    ShowMessage("どうか、世界のため力を尽くして下さいね。")
    PictureClear(5)
    EndEventProcessing()
    0()
   EndIf()
   0()
  EndIf()
  If(1,1001,0,29,0)
   PictureDisplay(5,"80_grandnoa_st01",0,0,0,0,100,100,0,0)
   PictureMove(5,null,0,0,0,0,100,100,255,0,30,true)
   ShowMessageFace("grandnoa_fc1",0,0,2,156)
   ShowMessage("\\n<グランドノア女王>今も、各国の首都が危機に晒されています。")
   ShowMessage("勇者ルカ...救援をお願いしますね。")
   PictureClear(5)
   EndEventProcessing()
   0()
  EndIf()
  If(1,1001,0,30,0)
   If(1,1070,0,1,0)
    PictureDisplay(5,"80_grandnoa_st01",0,0,0,0,100,100,0,0)
    PictureMove(5,null,0,0,0,0,100,100,255,0,30,true)
    ShowMessageFace("grandnoa_fc1",2,0,2,157)
    ShowMessage("\\n<グランドノア女王>我が国は、エルフと要請の混成軍に攻撃を受けています。")
    ShowMessage("彼女たちの本拠地は、サバサのはるか南西にある妖精の島...")
    ShowMessageFace("grandnoa_fc1",2,0,2,158)
    ShowMessage("\\n<グランドノア女王>クィーンエルフを討伐すれば、攻撃も止むはず。")
    ShowMessage("勇者ルカ、あなたの働きに期待していますよ。")
    PictureClear(5)
    EndEventProcessing()
    0()
   EndIf()
   If(1,1070,0,2,0)
    ChangeVariable(1070,1070,0,0,3)
    ShowMessageFace("",0,0,2,159)
    ShowMessage("ルカ達は、クィーンエルフとのやり取りを女王に報告した...")
    PictureDisplay(5,"80_grandnoa_st01",0,0,0,0,100,100,0,0)
    PictureMove(5,null,0,0,0,0,100,100,255,0,30,true)
    ShowMessageFace("grandnoa_fc1",2,0,2,160)
    ShowMessage("\\n<グランドノア女王>そうですか...彼女達は、人間に怒りを抱いていたのですね。")
    ShowMessage("思えば我々は、追われる者に対して無自覚過ぎたのかもしれません。")
    ShowMessageFace("grandnoa_fc1",2,0,2,161)
    ShowMessage("\\n<グランドノア女王>ともあれ、ここから先は政治で解決すべき問題ですね。")
    ShowMessage("この一件、今後はエルフ達と語り合い解決を図る事とします。")
    ShowMessageFace("grandnoa_fc1",0,0,2,162)
    ShowMessage("\\n<グランドノア女王>それにしても、素晴らしい活躍でしたね...")
    ShowMessage("勇者ルカ、我が国を救ってくれたお礼としてこれを授けましょう。")
    250(bytes(0x04,0x08,0x6f,0x3a,0x0c,0x52,0x50,0x47,0x3a,0x3a,0x53,0x45,0x08,0x3a,0x0a,0x40,0x6e,0x61,0x6d,0x65,0x49,0x22,0x0a,0x49,0x74,0x65,0x6d,0x31,0x06,0x3a,0x06,0x45,0x54,0x3a,0x0b,0x40,0x70,0x69,0x74,0x63,0x68,0x69,0x69,0x3a,0x0c,0x40,0x76,0x6f,0x6c,0x75,0x6d,0x65,0x69,0x55))
    ChangeInventory_Item(637,0,0,1)
    ChangeSwitch(2311,2311,0)
    If(0,4,0)
     ShowMessageFace("alice_fc5",1,0,2,163)
     ShowMessage("\\n<アリス>これは、王家に伝わる最上級職への転職アイテムのひとつ...")
     ShowMessage("これで料理人やメイドなど、様々な専門職の最上級職に就けるな。")
     0()
    EndIf()
    If(0,5,0)
     ShowMessageFace("iriasu_fc4",1,0,2,164)
     ShowMessage("\\n<イリアス>これは、王家に伝わる最上級職への転職アイテムのひとつ...")
     ShowMessage("これで料理人やメイドなど、様々な専門職の最上級職に就けますね。")
     0()
    EndIf()
    ChangeVariable(1079,1079,0,0,1)
    RunCommonEvent(329)
    If(0,2274,0)
     EndEventProcessing()
     0()
    EndIf()
    ShowMessageFace("grandnoa_fc1",0,0,2,165)
    ShowMessage("\\n<グランドノア女王>他国を脅かす女王も、討伐をお願いします。")
    ShowMessage("魔王軍の力を削がねば、我らに勝機はありません...")
    PictureClear(5)
    EndEventProcessing()
    0()
   EndIf()
   If(1,1070,0,3,1)
    PictureDisplay(5,"80_grandnoa_st01",0,0,0,0,100,100,0,0)
    PictureMove(5,null,0,0,0,0,100,100,255,0,30,true)
    ShowMessageFace("grandnoa_fc1",0,0,2,166)
    ShowMessage("\\n<グランドノア女王>他国を脅かす女王も、討伐をお願いします。")
    ShowMessage("魔王軍の力を削がねば、我らに勝機はありません...")
    PictureClear(5)
    EndEventProcessing()
    0()
   EndIf()
   0()
  EndIf()
  If(1,1001,0,31,1)
   PictureDisplay(5,"80_grandnoa_st01",0,0,0,0,100,100,0,0)
   PictureMove(5,null,0,0,0,0,100,100,255,0,30,true)
   ShowMessageFace("grandnoa_fc1",1,0,2,167)
   ShowMessage("\\n<グランドノア女王>魔王の討伐、どうかお願いいたします。")
   ShowMessage("魔王軍の侵攻は、グランドノア全軍をもって対処しますので...")
   PictureClear(5)
   EndEventProcessing()
   0()
  EndIf()
  0()



EVENT   5
 PAGE   1
  // condition: switch 31 is ON
  0()
 PAGE   2
  // condition: variable 1052 >= 8
  If(1,1063,0,0,0)
   If(1,1061,0,0,0)
    PictureDisplay(5,"80_mefist_st01",0,0,0,0,100,100,0,0)
    PictureMove(5,null,0,0,0,0,100,100,255,0,30,true)
    ShowMessageFace("mefist_fc1",0,0,2,1)
    ShowMessage("\\n<メフィスト>ここから西の森...")
    ShowMessage("その中に、プランセクト村という魔物の集落があります。")
    ShowMessageFace("mefist_fc1",0,0,2,2)
    ShowMessage("\\n<メフィスト>そこで、どうにもトラブルが発生したようで...")
    ShowMessage("村が二つの勢力に割れ、相争っているのです。")
    ShowMessageFace("mefist_fc1",0,0,2,3)
    ShowMessage("\\n<メフィスト>そういうわけで、プランセクト村の調停を頼みます。")
    ShowMessage("領内の乱れは、敵国に付け入る隙を与えますので...")
    PictureClear(5)
    EndEventProcessing()
    0()
   EndIf()
   If(1,1061,0,1,1)
    PictureDisplay(5,"80_mefist_st01",0,0,0,0,100,100,0,0)
    PictureMove(5,null,0,0,0,0,100,100,255,0,30,true)
    ShowMessageFace("mefist_fc1",0,0,2,4)
    ShowMessage("\\n<メフィスト>プランセクト村の内乱も鎮圧できましたか。")
    ShowMessage("流石の手腕ですね...")
    ShowMessageFace("mefist_fc1",0,0,2,5)
    ShowMessage("\\n<メフィスト>黒のアリスは、世界各地の急進派に働きかけています。")
    ShowMessage("以後も、お気を付け下さいね...")
    PictureClear(5)
    EndEventProcessing()
    0()
   EndIf()
   0()
  EndIf()
  If(1,1063,0,1,0)
   PictureDisplay(5,"80_mefist_st01",0,0,0,0,100,100,0,0)
   PictureMove(5,null,0,0,0,0,100,100,255,0,30,true)
   ShowMessageFace("mefist_fc1",0,0,2,6)
   ShowMessage("\\n<メフィスト>それではまず、ゴルド砦への侵入ですね。")
   ShowMessage("作戦の第一段階にあたり、助っ人を用意しました。")
   ShowMessageFace("mefist_fc1",0,0,2,7)
   ShowMessage("\\n<メフィスト>リマ村の廃墟にて、その助っ人と合流して下さい。")
   ShowMessage("エスタから道に沿って北西に進めば、リマ村に着くはずです。")
   PictureClear(5)
   EndEventProcessing()
   0()
  EndIf()
  If(1,1063,0,2,0)
   PictureDisplay(5,"80_mefist_st01",0,0,0,0,100,100,0,0)
   PictureMove(5,null,0,0,0,0,100,100,255,0,30,true)
   ShowMessageFace("mefist_fc1",0,0,2,8)
   ShowMessage("\\n<メフィスト>それではまず、ゴルド砦への侵入ですね。")
   ShowMessage("作戦の第一段階にあたり、助っ人を用意しました。")
   ShowMessageFace("mefist_fc1",0,0,2,9)
   ShowMessage("\\n<メフィスト>リマ村の廃墟にて、その助っ人と合流して下さい。")
   ShowMessage("エスタから道に沿って北西に進めば、リマ村に着くはずです。")
   PictureClear(5)
   EndEventProcessing()
   0()
  EndIf()
  If(1,1063,0,3,1)
   PictureDisplay(5,"80_mefist_st01",0,0,0,0,100,100,0,0)
   PictureMove(5,null,0,0,0,0,100,100,255,0,30,true)
   ShowMessageFace("mefist_fc1",0,0,2,10)
   ShowMessage("\\n<メフィスト>おや、なぜ戻ってきたのです...？")
   ShowMessage("手筈通り、作戦を進めなさい。")
   If(0,6,0)
    ShowMessageFace("sonia_fc1",5,0,2,11)
    ShowMessage("\\n<ソニア>もう、感じ悪いなぁ...")
    0()
   EndIf()
   PictureClear(5)
   EndEventProcessing()
   0()
  EndIf()
  0()
 PAGE   3
  // condition: variable 1063 >= 9
  0()



EVENT   6
 PAGE   1
  // condition: switch 2268 is ON
  241(bytes(0x04,0x08,0x6f,0x3a,0x0d,0x52,0x50,0x47,0x3a,0x3a,0x42,0x47,0x4d,0x08,0x3a,0x0a,0x40,0x6e,0x61,0x6d,0x65,0x49,0x22,0x0a,0x6b,0x69,0x6b,0x69,0x32,0x06,0x3a,0x06,0x45,0x54,0x3a,0x0c,0x40,0x76,0x6f,0x6c,0x75,0x6d,0x65,0x69,0x69,0x3a,0x0b,0x40,0x70,0x69,0x74,0x63,0x68,0x69,0x69))
  ChangeSelfSwitch("A",0)
  PictureDisplay(5,"80_grandnoa_st01",0,0,0,0,100,100,0,0)
  PictureMove(5,null,0,0,0,0,100,100,255,0,30,true)
  ShowMessageFace("grandnoa_fc1",2,0,2,1)
  ShowMessage("\\n<グランドノア女王>メフィスト...")
  ShowMessage("あなたの背後には、魔王がいるという話は本当ですか？")
  PictureDisplay(6,"80_grandnoa_st01",0,0,-150,0,100,100,255,0)
  PictureDisplay(5,"80_mefist_st01",0,0,150,0,100,100,255,0)
  ShowMessageFace("mefist_fc1",0,0,2,2)
  ShowMessage("\\n<メフィスト>...ええ、その通り。")
  ShowMessage("グランドノアの魔導顧問となったのも、魔王様の命令です。")
  ShowMessageFace("grandnoa_fc1",2,0,2,3)
  ShowMessage("\\n<グランドノア女王>ずっと、私を...")
  ShowMessage("そして、我がグランドノアを謀ってきたと？")
  ShowMessageFace("mefist_fc1",0,0,2,4)
  ShowMessage("\\n<メフィスト>粉骨砕身、グランドノアのために働いてきた事に、")
  ShowMessage("いっさいの嘘はありません。")
  ShowMessageFace("mefist_fc1",0,0,2,5)
  ShowMessage("\\n<メフィスト>「グランドノアに助力し、叡智を用いて勝利に導け」――")
  ShowMessage("それこそが、私が魔王様より受けたご命令なのです。")
  If(0,6,0)
   ShowMessageFace("sonia_fc1",5,0,2,6)
   ShowMessage("\\n<ソニア>つまり、魔王はグランドノアに協力するよう命じたって事？")
   ShowMessage("その命令通り、あんたはグランドノアに尽くしたって...？")
   0()
  Else()
   ShowMessageFace("ruka_fc1",0,0,2,7)
   ShowMessage("\\n<ルカ>つまり、魔王はグランドノアに協力するよう命じたって事？")
   ShowMessage("その命令通り、お前はグランドノアに尽くしたって...？")
   0()
  EndIf()
  ShowMessageFace("mefist_fc1",0,0,2,8)
  ShowMessage("\\n<メフィスト>ええ、一切の嘘は申していませんよ。")
  ShowMessage("私はグランドノアに貢献すれど、一切の害は与えていません。")
  ShowMessageFace("grandnoa_fc1",2,0,2,9)
  ShowMessage("\\n<グランドノア女王>...嘘ではないようですね。")
  ShowMessage("確かに貴方の貢献により、我が国は危機を切り抜けました。")
  ShowMessageFace("grandnoa_fc1",2,0,2,10)
  ShowMessage("\\n<グランドノア女王>では、別の質問をしましょう。")
  ShowMessage("聞くところによれば、サバサの国を乱したのは淫魔三姉妹...")
  ShowMessageFace("grandnoa_fc1",2,0,2,11)
  ShowMessage("\\n<グランドノア女王>この三姉妹と、魔王が協力関係にあるとすれば...")
  ShowMessage("サバサの女王の心を乱したのも、魔王の意によるものですね？")
  ShowMessageFace("mefist_fc1",0,0,2,12)
  ShowMessage("\\n<メフィスト>ええ、その通り...")
  ShowMessage("魔王と三姉妹は、事実上の同盟関係にあります。")
  ShowMessageFace("mefist_fc1",0,0,2,13)
  ShowMessage("\\n<メフィスト>三姉妹は魔王の部下ではありませんが...")
  ShowMessage("その利害は、完全に一致しているのです。")
  If(0,4,0)
   ShowMessageFace("alice_fc5",3,0,2,14)
   ShowMessage("\\n<アリス>母上...今の魔王と、三姉妹は同一勢力と見て間違いないか。")
   ShowMessage("サバサとグランドノアをそそのかし、何のつもりなのだ...")
   0()
  EndIf()
  If(0,5,0)
   ShowMessageFace("iriasu_fc4",2,0,2,15)
   ShowMessage("\\n<イリアス>今の魔王と三姉妹は、同一勢力と見て間違いないですね。")
   ShowMessage("サバサとグランドノアの背後で暗躍するとは、何を企んで...")
   0()
  EndIf()
  If(4,529,0)
   ShowMessageFace("sara_fc1",4,0,2,16)
   ShowMessage("\\n<サラ>なんて事なの...")
   0()
  EndIf()
  ShowMessageFace("grandnoa_fc1",2,0,2,17)
  ShowMessage("\\n<グランドノア女王>して、サバサを陥れグランドノアに手を貸した意図は？")
  ShowMessage("魔王は、何を企んでいるのです？")
  ShowMessageFace("mefist_fc1",0,0,2,18)
  ShowMessage("\\n<メフィスト>...存じません。")
  ShowMessageFace("mefist_fc1",0,0,2,19)
  ShowMessage("\\n<メフィスト>私が、あなた達の手に落ちる事も想定されていた以上...")
  ShowMessage("多くを知らされていると思いますか？")
  ShowMessageFace("grandnoa_fc1",2,0,2,20)
  ShowMessage("\\n<グランドノア女王>その言葉、全面的には信用できませんが...いいでしょう。")
  ShowMessage("それでは、最後の質問を。")
  ShowMessageFace("grandnoa_fc1",2,0,2,21)
  ShowMessage("\\n<グランドノア女王>グランゴルドの背後にも、魔王の手は伸びていますね？")
  ShowMessageFace("mefist_fc1",2,0,2,22)
  ShowMessage("\\n<メフィスト>............")
  ShowMessageFace("mefist_fc1",0,0,2,23)
  ShowMessage("\\n<メフィスト>...ええ。")
  ShowMessage("あの国は、魔王様の手により制圧されたと聞いています。")
  If(0,4,0)
   ShowMessageFace("alice_fc6",0,0,2,24)
   ShowMessage("\\n<アリス>なんだと！？")
   ShowMessage("グランゴルドは、すでに母上の...")
   0()
  EndIf()
  If(0,5,0)
   ShowMessageFace("iriasu_fc4",5,0,2,25)
   ShowMessage("\\n<イリアス>なんという事でしょう！")
   ShowMessage("グランゴルドも、すでに魔王の手に落ちて...")
   0()
  EndIf()
  If(0,6,0)
   ShowMessageFace("sonia_fc1",5,0,2,26)
   ShowMessage("\\n<ソニア>それって、おかしいじゃない！")
   ShowMessage("グランゴルドもグランドノアも、魔王が裏にいるんでしょ？")
   ShowMessageFace("sonia_fc1",5,0,2,27)
   ShowMessage("\\n<ソニア>それなのに、両国が戦争するってどういう事？")
   ShowMessage("魔王がわざと、大戦争をやらせてるっていうの！？")
   If(0,4,0)
    ShowMessageFace("alice_fc5",2,0,2,28)
    ShowMessage("\\n<アリス>答えを聞かせてもらおうか、メフィスト。")
    ShowMessage("両国を潰し合わせるにしても、度が過ぎているぞ。")
    0()
   EndIf()
   If(0,5,0)
    ShowMessageFace("iriasu_fc4",7,0,2,29)
    ShowMessage("\\n<イリアス>頭の足りない娘が、珍しく鋭い質問をしたのです。")
    ShowMessage("メフィスト、答えてもらいましょうか。")
    0()
   EndIf()
   0()
  Else()
   ShowMessageFace("ruka_fc1",0,0,2,30)
   ShowMessage("\\n<ルカ>じゃあ、なんでグランドノアとグランゴルドが戦争するんだ？")
   ShowMessage("どっちも魔王が操ってるのに...")
   If(0,4,0)
    ShowMessageFace("alice_fc5",2,0,2,31)
    ShowMessage("\\n<アリス>答えを聞かせてもらおうか、メフィスト。")
    ShowMessage("両国を潰し合わせるにしても、度が過ぎているぞ。")
    0()
   EndIf()
   If(0,5,0)
    ShowMessageFace("iriasu_fc4",7,0,2,32)
    ShowMessage("\\n<イリアス>いったい、どういう事なのです。")
    ShowMessage("メフィスト、答えてもらいましょうか。")
    0()
   EndIf()
   0()
  EndIf()
  ShowMessageFace("mefist_fc1",0,0,2,33)
  ShowMessage("\\n<メフィスト>さて...燕雀たる私に、鴻鵠の志など分かりかねます。")
  ShowMessage("海より深い理由があるのでしょう。")
  If(0,4,0)
   ShowMessageFace("alice_fc5",3,0,2,34)
   ShowMessage("\\n<アリス>答える気はないか...やれやれ。")
   0()
  EndIf()
  If(0,5,0)
   ShowMessageFace("iriasu_fc4",2,0,2,35)
   ShowMessage("\\n<イリアス>しゃべる気はないようですね...")
   0()
  EndIf()
  ShowMessageFace("grandnoa_fc1",2,0,2,36)
  ShowMessage("\\n<グランドノア女王>これ以上は、尋問も無駄でしょうね。")
  ShowMessage("それでは、メフィストの処遇は――")
  If(0,6,0)
   ShowMessageFace("sonia_fc2",2,0,2,37)
   ShowMessage("\\n<ソニア>ひょっとして、死刑...？")
   ShowMessage("ちょっと後味悪いかも...")
   0()
  EndIf()
  If(4,159,0)
   ShowMessageFace("ironmaiden_fc1",0,0,2,38)
   ShowMessage("\\n<メイデン>私の出番...？")
   0()
  EndIf()
  241(bytes(0x04,0x08,0x6f,0x3a,0x0d,0x52,0x50,0x47,0x3a,0x3a,0x42,0x47,0x4d,0x08,0x3a,0x0a,0x40,0x6e,0x61,0x6d,0x65,0x49,0x22,0x0c,0x63,0x61,0x73,0x74,0x6c,0x65,0x33,0x06,0x3a,0x06,0x45,0x54,0x3a,0x0c,0x40,0x76,0x6f,0x6c,0x75,0x6d,0x65,0x69,0x69,0x3a,0x0b,0x40,0x70,0x69,0x74,0x63,0x68,0x69,0x69))
  ShowMessageFace("grandnoa_fc1",2,0,2,39)
  ShowMessage("\\n<グランドノア女王>これまで通り、魔導顧問として遇します。")
  ShowMessage("今後もグランドノアのために貢献するように。")
  ShowMessageFace("mefist_fc1",0,0,2,40)
  ShowMessage("\\n<メフィスト>了解致しました、陛下。")
  If(0,6,0)
   ShowMessageFace("sonia_fc3",2,0,2,41)
   ShowMessage("\\n<ソニア>えっ！？　それで済んじゃうの！？")
   0()
  Else()
   ShowMessageFace("ruka_fc1",0,0,2,42)
   ShowMessage("\\n<ルカ>えっ、それでいいの！？")
   0()
  EndIf()
  ShowMessageFace("mefist_fc1",0,0,2,43)
  ShowMessage("\\n<メフィスト>まず、第一に...")
  ShowMessage("優れた為政者は、清濁を併せ呑むもの。")
  ShowMessageFace("mefist_fc1",0,0,2,44)
  ShowMessage("\\n<メフィスト>グランドノアの利益になる人材は、たとえ何者でも使う...")
  ShowMessage("まして今は戦時、選り好みなどしていられません。")
  If(0,6,0)
   ShowMessageFace("sonia_fc2",4,0,2,45)
   ShowMessage("\\n<ソニア>でも、裏切るかもしれないでしょ...！？")
   0()
  Else()
   ShowMessageFace("ruka_fc1",0,0,2,46)
   ShowMessage("\\n<ルカ>えっ、それでいいの！？")
   0()
  EndIf()
  ShowMessageFace("mefist_fc1",0,0,2,47)
  ShowMessage("\\n<メフィスト>第二に...友人は近くに、敵はもっと近くに置くもの。")
  ShowMessage("裏のある者だからこそ、近くで監視すべきなのです。")
  If(0,6,0)
   ShowMessageFace("mefist_fc1",0,0,2,48)
   ShowMessage("\\n<メフィスト>私を通じ、その裏にいる者の動きを探る事もできるはず...")
   ShowMessage("勉強になりましたか、僧侶のお嬢さん？")
   ShowMessageFace("sonia_fc1",5,0,2,49)
   ShowMessage("\\n<ソニア>なんか腹立つ...")
   0()
  Else()
   ShowMessageFace("mefist_fc1",0,0,2,50)
   ShowMessage("\\n<メフィスト>私を通じ、その裏にいる者の動きを探る事もできるはず...")
   ShowMessage("勉強になりましたか、勇者君？")
   ShowMessageFace("ruka_fc1",0,0,2,51)
   ShowMessage("\\n<ルカ>うぐぐ...")
   0()
  EndIf()
  355("gain_medal(36)")
  ShowMessageFace("mefist_fc1",0,0,2,52)
  ShowMessage("\\n<メフィスト>それでは...")
  PictureClear(5)
  PictureClear(6)
  Wait(60)
  250(bytes(0x04,0x08,0x6f,0x3a,0x0c,0x52,0x50,0x47,0x3a,0x3a,0x53,0x45,0x08,0x3a,0x0a,0x40,0x6e,0x61,0x6d,0x65,0x49,0x22,0x0d,0x6d,0x6f,0x6e,0x5f,0x77,0x61,0x72,0x70,0x06,0x3a,0x06,0x45,0x54,0x3a,0x0b,0x40,0x70,0x69,0x74,0x63,0x68,0x69,0x69,0x3a,0x0c,0x40,0x76,0x6f,0x6c,0x75,0x6d,0x65,0x69,0x55))
  ChangeVariable(1052,1052,0,0,8)
  ChangeVariable(1062,1062,0,0,1)
  ChangeSwitch(100,100,1)
  ShowMessageFace("mefist_fc1",0,0,2,53)
  ShowMessage("\\n<メフィスト>我が主、魔王様の名誉にかけて誓いましょう。")
  ShowMessage("今後も粉骨砕身、このグランドノアのために尽くす事を。")
  PictureDisplay(5,"80_grandnoa_st01",0,0,0,0,100,100,0,0)
  PictureMove(5,null,0,0,0,0,100,100,255,0,30,true)
  ShowMessageFace("grandnoa_fc1",0,0,2,54)
  ShowMessage("\\n<グランドノア女王>そういうわけで、疑念の確証は取れました。")
  ShowMessage("グランゴルドにも、魔王の手は伸びていたのです。")
  ShowMessageFace("grandnoa_fc1",0,0,2,55)
  ShowMessage("\\n<グランドノア女王>サバサのサラ女王と同じように...")
  ShowMessage("グランゴルドの王も、心を乱されているのかもしれません。")
  If(4,529,0)
   ShowMessageFace("sara_fc1",4,0,2,56)
   ShowMessage("\\n<サラ>その可能性は、高いわね...")
   0()
  EndIf()
  ShowMessageFace("grandnoa_fc1",0,0,2,57)
  ShowMessage("\\n<グランドノア女王>そして、こたびの大戦も魔王の企てによるもの。")
  ShowMessage("それが明らかになった以上、正面から事を構えるのは下策。")
  ShowMessageFace("grandnoa_fc1",0,0,2,58)
  ShowMessage("\\n<グランドノア女王>勇者ルカ...今後とも、協力をお願いできますでしょうか？")
  ShowChoices(strings("もちろん！","いやだ！"),0)
  IfPlayerPicksChoice(0,null)
   ShowMessageFace("ruka_fc1",0,0,2,59)
   ShowMessage("\\n<ルカ>はい、もちろんです！")
   0()
  IfPlayerPicksChoice(1,null)
   ShowMessageFace("ruka_fc1",0,0,2,60)
   ShowMessage("\\n<ルカ>いやです！")
   If(0,4,0)
    ShowMessageFace("alice_fc5",3,0,2,61)
    ShowMessage("\\n<アリス>拒否するな、ドアホめ...")
    ShowMessage("魔王の陰謀、放置できるわけがないだろう。")
    ShowMessageFace("alice_fc5",2,0,2,62)
    ShowMessage("\\n<アリス>そういうわけで、協力しよう。")
    ShowMessage("我々の旅の目的も、おそらく関わってくるはずだ。")
    0()
   EndIf()
   If(0,5,0)
    ShowMessageFace("iriasu_fc4",2,0,2,63)
    ShowMessage("\\n<イリアス>それでも勇者ですか...")
    ShowMessage("魔王の陰謀、おそらく我々の旅に深く関わっているはず。")
    ShowMessageFace("iriasu_fc4",0,0,2,64)
    ShowMessage("\\n<イリアス>そういうわけで、我々も協力しましょう。")
    ShowMessage("魔王の企てを排除し、正義と秩序を取り戻すのです。")
    0()
   EndIf()
   0()
  404()
  ShowMessageFace("grandnoa_fc1",0,0,2,65)
  ShowMessage("\\n<グランドノア女王>感謝します、勇者ルカ...")
  ShowMessage("共に力を合わせ、魔王の陰謀を打ち破りましょう。")
  If(0,2149,0)
   ShowMessageFace("bonny_fc1",1,0,2,66)
   ShowMessage("\\n<ボニー>おさかな海賊団も一緒だ！")
   ShowMessageFace("ashel_fc1",1,0,2,67)
   ShowMessage("\\n<アシェル>こりゃ、ますます名を上げるチャンスだね！")
   0()
  EndIf()
  If(0,2148,0)
   ShowMessageFace("umiusi_k_fc1",0,0,2,68)
   ShowMessage("\\n<ステイシー>もちろん、海軍も支援しますよ！")
   ShowMessageFace("tatunoko_k_fc1",0,0,2,69)
   ShowMessage("\\n<たつこ>一緒にがんばるのです！")
   0()
  EndIf()
  ShowMessageFace("grandnoa_fc1",0,0,2,70)
  ShowMessage("\\n<グランドノア女王>では...これより、私は重臣達と協議を行います。")
  ShowMessage("明らかになった事情を踏まえ、大幅に戦略を練り直さなければ。")
  ShowMessageFace("grandnoa_fc1",0,0,2,71)
  ShowMessage("\\n<グランドノア女王>あなた達は、エスタへ調査に行ってもらえないでしょうか？")
  ShowMessage("以前の約束通り、調査団参加の手続きは済ませておきました。")
  If(0,4,0)
   ShowMessageFace("alice_fc5",0,0,2,72)
   ShowMessage("\\n<アリス>うむ、それではエスタへ向かうとしよう。")
   ShowMessage("西への道を立て札の指示に沿って進めば、迷う事はあるまい。")
   0()
  EndIf()
  If(0,5,0)
   ShowMessageFace("iriasu_fc4",0,0,2,73)
   ShowMessage("\\n<イリアス>それではエスタへ向かうとしましょう。")
   ShowMessage("西への道を進み、立て札の指示に従えば辿り着くでしょう。")
   0()
  EndIf()
  ShowMessageFace("grandnoa_fc1",0,0,2,74)
  ShowMessage("\\n<グランドノア女王>貴方達が帰還した頃には、こちらの軍議も済んでいるはず。")
  ShowMessage("戦略を大幅に練り直し、貴方達の手も借りる事になるでしょう。")
  ShowMessageFace("grandnoa_fc1",0,0,2,75)
  ShowMessage("\\n<グランドノア女王>それでは、頼みましたよ...")
  ShowMessage("調査の件、朗報を期待しています。")
  ShowMessageFace("ruka_fc1",0,0,2,76)
  ShowMessage("\\n<ルカ>はい、任せて下さい！")
  If(1,1061,0,0,0)
   PictureDisplay(5,"80_mefist_st01",0,0,0,0,100,100,0,0)
   PictureMove(5,null,0,0,0,0,100,100,255,0,30,true)
   ShowMessageFace("mefist_fc1",0,0,2,77)
   ShowMessage("\\n<メフィスト>勇者ルカ...")
   ShowMessage("私からもひとつ、頼みたい事があるのですが。")
   If(0,6,0)
    ShowMessageFace("sonia_fc3",2,0,2,78)
    ShowMessage("\\n<ソニア>なに、この人！　ずうずうしい！")
    0()
   Else()
    ShowMessageFace("ruka_fc1",0,0,2,79)
    ShowMessage("\\n<ルカ>えっ...？")
    0()
   EndIf()
   ShowMessageFace("mefist_fc1",0,0,2,80)
   ShowMessage("\\n<メフィスト>まあ、そう言わず...")
   ShowMessage("あなた達の目的とも、利害が一致する話ですよ。")
   ShowMessageFace("mefist_fc1",0,0,2,81)
   ShowMessage("\\n<メフィスト>ここから西の森...")
   ShowMessage("その中に、プランセクト村という魔物の集落があります。")
   ShowMessageFace("mefist_fc1",0,0,2,82)
   ShowMessage("\\n<メフィスト>そこで、どうにもトラブルが発生したようで...")
   ShowMessage("村が二つの勢力に割れ、相争っているのです。")
   If(0,4,0)
    ShowMessageFace("alice_fc5",0,0,2,83)
    ShowMessage("\\n<アリス>昆虫族と植物族の争いだろう？")
    ShowMessage("聞いた話では、アリス17世が強引に調停したとの事だが...")
    0()
   EndIf()
   If(0,5,0)
    ShowMessageFace("iriasu_fc4",2,0,2,84)
    ShowMessage("\\n<イリアス>昆虫族と植物族の争いでしょう？")
    ShowMessage("確か、アリス17世が強引に調停したとの話ですが...")
    0()
   EndIf()
   ShowMessageFace("mefist_fc1",0,0,2,85)
   ShowMessage("\\n<メフィスト>それが、よからぬ者達のせいで再燃してしまったのです。")
   ShowMessage("詳しい事情は、かの村に行けば分かりますよ。")
   ShowMessageFace("mefist_fc1",0,0,2,86)
   ShowMessage("\\n<メフィスト>そういうわけで、プランセクト村の調停を頼みます。")
   ShowMessage("領内の乱れは、敵国に付け入る隙を与えますので...")
   If(0,6,0)
    ShowMessageFace("sonia_fc2",4,0,2,87)
    ShowMessage("\\n<ソニア>どのツラ下げて、そんな事を！")
    0()
   EndIf()
   PictureClear(5)
   ShowMessageFace("",0,0,2,88)
   ShowMessage("とは言え、頼まれた以上は放置もできない。")
   ShowMessage("西の森にあるプランセクト村に、足を運んでみるとするか――")
   If(1,1056,0,0,0)
    ChangeVariable(1056,1056,0,0,1)
    0()
   EndIf()
   0()
  EndIf()
  PictureClear(5)
  EndEventProcessing()
  0()
 PAGE   2
  // condition: self-switch A is ON
  0()



EVENT   7
 PAGE   1
  // condition: switch 31 is ON
  0()



EVENT   8
 PAGE   1
  // condition: switch 31 is ON
  0()



EVENT   9
 PAGE   1
  ShowMessageFace("",0,0,2,1)
  ShowMessage("\\n<衛兵>謁見の間になります。")
  0()



EVENT   10
 PAGE   1
  ShowMessageFace("",0,0,2,1)
  ShowMessage("\\n<衛兵>女王陛下の御身をお守りするのが、我々近衛兵の務めです。")
  0()



EVENT   11
 PAGE   1
  ShowMessageFace("",0,0,2,1)
  ShowMessage("\\n<メイド>こちらは陛下のお部屋ですが、あまり使っておられないようで。")
  ShowMessage("普段、あのメダル城に...いえいえ、何でもございません。")
  0()



EVENT   12
 PAGE   1
  ShowMessageFace("",0,0,2,1)
  ShowMessage("\\n<衛兵>こちらは会議室となります。")
  0()



EVENT   13
 PAGE   1
  ShowMessageFace("",0,0,2,1)
  ShowMessage("\\n<衛兵>女王陛下のお部屋です。")
  ShowMessage("みだりに立ち入らないようお願いします。")
  0()



EVENT   14
 PAGE   1
  ShowMessageFace("",0,0,2,1)
  ShowMessage("\\n<騎士>この命、女王陛下に捧げております。")
  0()



EVENT   15
 PAGE   1
  ShowMessageFace("",0,0,2,1)
  ShowMessage("\\n<衛兵>女王陛下を狙う賊は、我らが討ち果たす所存。")
  0()

EVENT   16
 PAGE   1
  ShowMessageFace("",0,0,2,1)
  ShowMessage("\\n<騎士>女王陛下に絶対の忠誠を！")
  0()



EVENT   17
 PAGE   1
  ShowMessageFace("",0,0,2,1)
  ShowMessage("\\n<衛兵>戦場で斃れた同胞達のためにも...")
  ShowMessage("陛下の身は、我らが守り抜きます。")
  0()


