﻿


EVENT   1
 PAGE   1
  ShowMessageFace("",0,0,2,1)
  ShowMessage("次のフロアに進みますか？")
  ShowChoices(strings("まだ行かない","次のフロアに進む"),1)
  IfPlayerPicksChoice(0,null)
   205(-1,bytes(0x04,0x08,0x6f,0x3a,0x13,0x52,0x50,0x47,0x3a,0x3a,0x4d,0x6f,0x76,0x65,0x52,0x6f,0x75,0x74,0x65,0x09,0x3a,0x0c,0x40,0x72,0x65,0x70,0x65,0x61,0x74,0x46,0x3a,0x0f,0x40,0x73,0x6b,0x69,0x70,0x70,0x61,0x62,0x6c,0x65,0x46,0x3a,0x0a,0x40,0x77,0x61,0x69,0x74,0x54,0x3a,0x0a,0x40,0x6c,0x69,0x73,0x74,0x5b,0x07,0x6f,0x3a,0x15,0x52,0x50,0x47,0x3a,0x3a,0x4d,0x6f,0x76,0x65,0x43,0x6f,0x6d,0x6d,0x61,0x6e,0x64,0x07,0x3a,0x0a,0x40,0x63,0x6f,0x64,0x65,0x69,0x08,0x3a,0x10,0x40,0x70,0x61,0x72,0x61,0x6d,0x65,0x74,0x65,0x72,0x73,0x5b,0x00,0x6f,0x3b,0x0a,0x07,0x3b,0x0b,0x69,0x00,0x3b,0x0c,0x5b,0x00))
   EndEventProcessing()
   0()
  IfPlayerPicksChoice(1,null)
   ChangeVariable(121,121,2,0,1)
   RunCommonEvent(901)
   EndEventProcessing()
   0()
  404()
  0()



EVENT   2
 PAGE   1
  // condition: variable 126 >= 0
  ShowMessageFace("ruka_fc1",0,0,2,1)
  ShowMessage("【ルカ】")
  ShowMessage("これは、プリンの蓋……？")
  ShowMessage("マジックで名前が書いてあるな……")
  ShowMessageFace("ruka_fc1",0,0,2,2)
  ShowMessage("【ルカ】")
  ShowMessage("……「アリス」か。")
  ShowMessage("ふむふむ、読めてきたぞ……")
  0()
 PAGE   2
  // condition: variable 126 >= 1
  ShowMessageFace("ruka_fc1",0,0,2,1)
  ShowMessage("【ルカ】")
  ShowMessage("机の上に、血のりが……")
  ShowMessage("……いや、これは「地の利」！？")
  ShowMessageFace("ruka_fc1",0,0,2,2)
  ShowMessage("【ルカ】")
  ShowMessage("そうか、分かったぞ！")
  ShowMessage("犯人は机の上に乗って、地の利を得たんだ！")
  ShowMessageFace("sonia_fc2",2,0,2,3)
  ShowMessage("【ソニア】")
  ShowMessage("ルカ、何言ってるの……？")
  0()
 PAGE   3
  // condition: variable 126 >= 2
  ShowMessageFace("ruka_fc1",0,0,2,1)
  ShowMessage("【ルカ】")
  ShowMessage("ここに、少し血が付いている……")
  ShowMessage("よく見ると、机が少し割れているな。")
  ShowMessageFace("ruka_fc1",0,0,2,2)
  ShowMessage("【ルカ】")
  ShowMessage("イリアス様は、ここに叩きつけられたのか？")
  ShowMessage("そんな暴行を受けながら、助けを呼ばなかった……？")
  0()
 PAGE   4
  // condition: variable 126 >= 3
  ShowMessageFace("ruka_fc1",0,0,2,1)
  ShowMessage("【ルカ】")
  ShowMessage("これは、プープークッション？")
  ShowMessage("イタズラ用のオモチャだけど、なんでこんな所に……？")
  0()
 PAGE   5
  // condition: variable 126 >= 4
  ShowMessageFace("ruka_fc1",0,0,2,1)
  ShowMessage("【ルカ】")
  ShowMessage("机の上に、書類がある……")
  ShowMessage("プチの宿に荷物を搬入するための計画書だな。")
  ShowMessageFace("ruka_fc1",0,0,2,2)
  ShowMessage("【ルカ】")
  ShowMessage("ヴァニラがこの部屋に用意した品を、ゴブが宿まで運搬する……")
  ShowMessage("そういう流れになってたのか。")
  0()



EVENT   3
 PAGE   1
  // condition: variable 126 >= 0
  ShowMessageFace("eva_fc1",2,0,2,1)
  ShowMessage("【エヴァ】")
  ShowMessage("なんで、罪もない私がこんな目に……")
  ShowMessageFace("ruka_fc1",0,0,2,2)
  ShowMessage("【ルカ】")
  ShowMessage("頭を鈍器で殴られて死んでいる……")
  ShowMessage("そして、その側には血まみれの棍棒があるな。")
  ShowMessageFace("ruka_fc1",0,0,2,3)
  ShowMessage("【ルカ】")
  ShowMessage("棍棒と言えば、もちろんソニア……")
  ShowMessage("でも、わざわざ自身を示す凶器を転がしておくか？")
  0()
 PAGE   2
  // condition: variable 126 >= 1
  ShowMessageFace("alice_fc5",3,0,2,1)
  ShowMessage("【アリス】")
  ShowMessage("むぐぐ……無念……")
  ShowMessageFace("ruka_fc1",0,0,2,2)
  ShowMessage("【ルカ】")
  ShowMessage("シャンデリアの下敷きになって死んでいる……")
  ShowMessage("頭の傷も、シャンデリアによるものか？")
  ShowMessageFace("ruka_fc1",0,0,2,3)
  ShowMessage("【ルカ】")
  ShowMessage("そして、死ぬ前に記したと思われるダイイングメッセージ……")
  ShowMessage("「ア マエル」とは、いったい誰に甘えたかったのか？")
  0()
 PAGE   3
  // condition: variable 126 >= 2
  ShowMessageFace("iriasu_fc4",4,0,2,1)
  ShowMessage("【イリアス】")
  ShowMessage("女神なのに、こんな扱いなんて……")
  ShowMessageFace("ruka_fc1",0,0,2,2)
  ShowMessage("【ルカ】")
  ShowMessage("全身が打撲だらけ……")
  ShowMessage("何度もあちこちを強打されたのか？")
  ShowMessageFace("ruka_fc1",0,0,2,3)
  ShowMessage("【ルカ】")
  ShowMessage("それに側には、血まみれの本が転がってる……")
  ShowMessage("タイトルは、「量子力学と波動」か。")
  ShowMessageFace("ruka_fc1",0,0,2,4)
  ShowMessage("【ルカ】")
  ShowMessage("ミカエラちゃんは、人文系の本しか読まないはず。")
  ShowMessage("ルシフィナちゃんは絵本しか読まないし、エデンは論外……")
  0()
 PAGE   4
  // condition: variable 126 >= 3
  ShowMessageFace("sylph_fc2",4,0,2,1)
  ShowMessage("【シルフ】")
  ShowMessage("むぎゅぅ……")
  ShowMessageFace("ruka_fc1",0,0,2,2)
  ShowMessage("【ルカ】")
  ShowMessage("シルフは火に焼かれ、水で溺れ……")
  ShowMessage("そして、地面に埋められているのを発見された。")
  ShowMessageFace("ruka_fc1",0,0,2,3)
  ShowMessage("【ルカ】")
  ShowMessage("火、水、土……")
  ShowMessage("風を除く、四精霊の力で殺されたのか？")
  0()
 PAGE   5
  // condition: variable 126 >= 4
  ShowMessageFace("phoenix_fc1",5,0,2,1)
  ShowMessage("【ミニ】")
  ShowMessage("むぎゅう……")
  ShowMessage("不死鳥なのに死んじゃったぞ……")
  ShowMessageFace("ruka_fc1",0,0,2,2)
  ShowMessage("【ルカ】")
  ShowMessage("全身打撲……まるで、車にはねられたかのようだ。")
  ShowMessage("いったい、何があったんだろう。")
  ShowMessageFace("ruka_fc1",0,0,2,3)
  ShowMessage("【ルカ】")
  ShowMessage("そして死体の側には、ピーナッツがいくつか落ちている。")
  ShowMessage("犯人の落とし物か、それとも……")
  0()



EVENT   4
 PAGE   1
  // condition: variable 126 >= 0
  ShowMessageFace("alice_fc5",0,0,2,1)
  ShowMessage("【アリス】")
  ShowMessage("余は関係ないぞ……")
  ShowMessage("どうせ、どこかで恨みでも買ったのではないのか？")
  0()
 PAGE   2
  // condition: variable 126 >= 1
  ShowMessageFace("arumaeruma_fc2",2,0,2,1)
  ShowMessage("【アルマエルマ】")
  ShowMessage("私が、こんな事をするわけがないじゃない……")
  ShowMessage("だから、あまり死体の近くを調べないでね。")
  0()
 PAGE   3
  // condition: variable 126 >= 2
  ShowMessageFace("micaelac_fc1",0,0,2,1)
  ShowMessage("【ミカエラちゃん】")
  ShowMessage("私も妹も、関係ないわ……")
  ShowMessage("疑ったって、時間の無駄よ……")
  0()
 PAGE   4
  // condition: variable 126 >= 3
  ShowMessageFace("gnome_fc1",0,0,2,1)
  ShowMessage("【ノーム】")
  ShowMessage("……………………")
  0()
 PAGE   5
  // condition: variable 126 >= 4
  ShowMessageFace("gob_fc1",3,0,2,1)
  ShowMessage("【ゴブ】")
  ShowMessage("ボク、ずっと働いてたんだから！")
  ShowMessage("その時間、プチの宿屋に荷物を運んでたんだよ～！")
  0()



EVENT   5
 PAGE   1
  // condition: variable 126 >= 0
  ShowMessageFace("sonia_fc2",3,0,2,1)
  ShowMessage("【ソニア】")
  ShowMessage("わ、私は知らないわよ……")
  ShowMessage("棍棒？　知らないったら！")
  0()
 PAGE   2
  // condition: variable 126 >= 1
  ShowMessageFace("granberia_fc4",2,0,2,1)
  ShowMessage("【グランベリア】")
  ShowMessage("わ、私ではない……！")
  ShowMessage("この剣で、主君を討つなどありえるものか……！")
  ShowMessageFace("granberia_fc4",2,0,2,2)
  ShowMessage("【グランベリア】")
  ShowMessage("わ、私は無実だぞ！　やってはいない……！")
  0()
 PAGE   3
  // condition: variable 126 >= 2
  ShowMessageFace("rucyfinac_fc1",4,0,2,1)
  ShowMessage("【ルシフィナちゃん】")
  ShowMessage("あ、あたしじゃないもん！")
  ShowMessage("違うもん！")
  0()
 PAGE   4
  // condition: variable 126 >= 3
  ShowMessageFace("undine_fc1",0,0,2,1)
  ShowMessage("【ウンディーネ】")
  ShowMessage("シルフは丸焼けなんでしょう？")
  ShowMessage("それなら、間違いなくサラマンダーの仕業よ……")
  0()
 PAGE   5
  // condition: variable 126 >= 4
  ShowMessageFace("pramia_fc1",2,0,2,1)
  ShowMessage("【プチ】")
  ShowMessage("あたしじゃないよ～！")
  ShowMessage("その時間、宿の荷物搬入に忙しかったんだからね！")
  0()



EVENT   6
 PAGE   1
  // condition: variable 126 >= 0
  ShowMessageFace("saki_fc1",2,0,2,1)
  ShowMessage("【サキ】")
  ShowMessage("サキ、関係ないよ～！")
  ShowMessage("スキャンダルは、お仕事に響くもんね。")
  0()
 PAGE   2
  // condition: variable 126 >= 1
  ShowMessageFace("tamamo_fc1",3,0,2,1)
  ShowMessage("【たまも】")
  ShowMessage("魔王様、なんとおいたわしいのじゃ……")
  ShowMessage("ちなみにウチは、この部屋には今まで立ち入っておらんぞ。")
  0()
 PAGE   3
  // condition: variable 126 >= 2
  ShowMessageFace("stein_fc2",0,0,2,1)
  ShowMessage("【プロメスティン】")
  ShowMessage("私が、こんな雑な仕事をするわけがないでしょう。")
  ShowMessage("私が犯人なら、死体など発見されませんよ。")
  0()
 PAGE   4
  // condition: variable 126 >= 3
  ShowMessageFace("salamander_fc1",2,0,2,1)
  ShowMessage("【サラマンダー】")
  ShowMessage("シルフは溺れた形跡があったのだろう？")
  ShowMessage("なら、ウンディーネの仕業で決まりではないか！")
  0()
 PAGE   5
  // condition: variable 126 >= 4
  ShowMessageFace("vgirl_fc1",2,0,2,1)
  ShowMessage("【ヴァニラ】")
  ShowMessage("我ではないぞ！")
  ShowMessage("その時間、プチの宿に搬入する品の準備をしていたのだ！")
  0()



EVENT   7
 PAGE   1
  // condition: variable 126 >= 0
  ShowMessageFace("succubus_fc1",1,0,2,1)
  ShowMessage("【サキュバス】")
  ShowMessage("いつかは、こうなると思っていたわ……")
  ShowMessage("わざわざ私が手を下すまでもなかったね。")
  0()
 PAGE   2
  // condition: variable 126 >= 1
  ShowMessageFace("erbetie_fc1",0,0,2,1)
  ShowMessage("【エルベティエ】")
  ShowMessage("私は無関係よ……")
  ShowMessage("これから、忙しくなりそうね。")
  0()
 PAGE   3
  // condition: variable 126 >= 2
  ShowMessageFace("eden_fc1",2,0,2,1)
  ShowMessage("【エデン】")
  ShowMessage("おおお、イリアス様～！！")
  ShowMessage("おぉぉ……おぉぉぉぉ～～！！")
  0()
 PAGE   4
  // condition: variable 126 >= 3
  ShowMessageFace("nuruko_fc1",0,0,2,1)
  ShowMessage("【ヌルコ】")
  ShowMessage("きゅー！　きゅきゅきゅきゅー！")
  0()
 PAGE   5
  // condition: variable 126 >= 4
  ShowMessageFace("dragonp_fc1",2,0,2,1)
  ShowMessage("【パピ】")
  ShowMessage("うがー！　やっていないのだー！")
  ShowMessage("その時間、プチの宿への荷物運びを眺めていたのだ！")
  0()



EVENT   8
 PAGE   1
  // condition: variable 126 >= 0
  ShowMessageFace("ruka_fc1",0,0,2,1)
  ShowMessage("【ルカ】")
  ShowMessage("こんなところに、楽譜が落ちてる……")
  ShowMessage("これは、サキちゃんの持ち歌じゃないか！")
  0()
 PAGE   2
  // condition: variable 126 >= 1
  ShowMessageFace("ruka_fc1",0,0,2,1)
  ShowMessage("【ルカ】")
  ShowMessage("ここに、毛玉が落ちてる……")
  ShowMessageFace("ruka_fc1",0,0,2,2)
  ShowMessage("【ルカ】")
  ShowMessage("ペロッ……これは狐の毛だな。")
  0()
 PAGE   3
  // condition: variable 126 >= 2
  ShowMessageFace("ruka_fc1",0,0,2,1)
  ShowMessage("【ルカ】")
  ShowMessage("ビー玉や竹トンボが転がっている……")
  ShowMessage("これ、ルシフィナちゃんのオモチャじゃないか？")
  0()
 PAGE   4
  // condition: variable 126 >= 3
  0()
 PAGE   5
  // condition: variable 126 >= 4
  ShowMessageFace("ruka_fc1",0,0,2,1)
  ShowMessage("【ルカ】")
  ShowMessage("ここにもピーナッツが落ちている……")
  ShowMessage("まるで獲物をおびき寄せるかのように、並べて置いてあるな。")
  ShowMessageFace("ruka_fc1",0,0,2,2)
  ShowMessage("【ルカ】")
  ShowMessage("まさか、エサを並べて何かを誘導した……？")
  0()



EVENT   9
 PAGE   1
  // condition: variable 126 >= 0
  ShowMessageFace("ruka_fc1",0,0,2,1)
  ShowMessage("【ルカ】")
  ShowMessage("こんな所に、イモが転がってる……")
  ShowMessage("誰かがここに捨てたのか？")
  0()
 PAGE   2
  // condition: variable 126 >= 1
  ShowMessageFace("ruka_fc1",0,0,2,1)
  ShowMessage("【ルカ】")
  ShowMessage("ここに血痕が……")
  ShowMessage("よく見れば、部屋のあちこちにあるな。")
  ShowMessageFace("ruka_fc1",0,0,2,2)
  ShowMessage("【ルカ】")
  ShowMessage("アリスは、誰かと戦っていたのか？")
  ShowMessage("侵入者でなければ、模擬戦とか……")
  0()
 PAGE   3
  // condition: variable 126 >= 2
  ShowMessageFace("ruka_fc1",0,0,2,1)
  ShowMessage("【ルカ】")
  ShowMessage("ここに、イリアス様の羽根が落ちている……")
  ShowMessage("壁のあちこちに、血の跡が残っているな。")
  ShowMessageFace("ruka_fc1",0,0,2,2)
  ShowMessage("【ルカ】")
  ShowMessage("壁や床に、何度も叩きつけられたのか？")
  ShowMessage("でも、なんでイリアス様は無抵抗だったんだ……？")
  0()
 PAGE   4
  // condition: variable 126 >= 3
  ShowMessageFace("ruka_fc1",0,0,2,1)
  ShowMessage("【ルカ】")
  ShowMessage("なんだかこの辺、焼け焦げてないか？")
  ShowMessage("それに、絨毯に何かの液体で染みが……")
  ShowMessageFace("ruka_fc1",0,0,2,2)
  ShowMessage("【ルカ】")
  ShowMessage("ペロッ、これは灯油！")
  ShowMessage("なんでこんなところに、灯油が……？")
  0()
 PAGE   5
  // condition: variable 126 >= 4
  ShowMessageFace("ruka_fc1",0,0,2,1)
  ShowMessage("【ルカ】")
  ShowMessage("食料などの荷物が積んである……")
  ShowMessage("ここからプチの宿に、物資の運搬作業をしてたんだな。")
  0()



EVENT   10
 PAGE   1
  // condition: variable 126 >= 0
  ShowMessageFace("ruka_fc1",0,0,2,1)
  ShowMessage("【ルカ】")
  ShowMessage("さて、そろそろいいかな……？")
  ShowChoices(strings("犯人を指名する","まだ調べる事がある"),2)
  IfPlayerPicksChoice(0,null)
   217()
   205(-1,bytes(0x04,0x08,0x6f,0x3a,0x13,0x52,0x50,0x47,0x3a,0x3a,0x4d,0x6f,0x76,0x65,0x52,0x6f,0x75,0x74,0x65,0x09,0x3a,0x0c,0x40,0x72,0x65,0x70,0x65,0x61,0x74,0x46,0x3a,0x0f,0x40,0x73,0x6b,0x69,0x70,0x70,0x61,0x62,0x6c,0x65,0x46,0x3a,0x0a,0x40,0x77,0x61,0x69,0x74,0x54,0x3a,0x0a,0x40,0x6c,0x69,0x73,0x74,0x5b,0x07,0x6f,0x3a,0x15,0x52,0x50,0x47,0x3a,0x3a,0x4d,0x6f,0x76,0x65,0x43,0x6f,0x6d,0x6d,0x61,0x6e,0x64,0x07,0x3a,0x0a,0x40,0x63,0x6f,0x64,0x65,0x69,0x17,0x3a,0x10,0x40,0x70,0x61,0x72,0x61,0x6d,0x65,0x74,0x65,0x72,0x73,0x5b,0x00,0x6f,0x3b,0x0a,0x07,0x3b,0x0b,0x69,0x00,0x3b,0x0c,0x5b,0x00))
   ShowMessageFace("ruka_fc1",0,0,2,2)
   ShowMessage("【ルカ】")
   ShowMessage("それでは、犯人を当てましょう。")
   ShowMessage("この事件の犯人は――")
   ShowChoices(strings("アリス","ソニア","サキ","サキュバス"),0)
   IfPlayerPicksChoice(0,null)
    ShowMessageFace("ruka_fc1",0,0,2,3)
    ShowMessage("【ルカ】")
    ShowMessage("事件の犯人は……アリスだ！")
    ShowMessageFace("alice_fc5",6,0,2,4)
    ShowMessage("【アリス】")
    ShowMessage("なんだと！？　貴様、証拠はあるのだろうな！")
    ShowMessageFace("ruka_fc1",0,0,2,5)
    ShowMessage("【ルカ】")
    ShowMessage("もちろん、証拠はあります。")
    ShowMessage("その為にも、エヴァの事件前後の行動を追いましょう。")
    ShowMessageFace("ruka_fc1",0,0,2,6)
    ShowMessage("【ルカ】")
    ShowMessage("まずエヴァは、この部屋に入ってくると……")
    ShowMessage("サキちゃんの楽譜で音楽を奏でようとして、途中で投げ出した。")
    ShowMessageFace("ruka_fc1",0,0,2,7)
    ShowMessage("【ルカ】")
    ShowMessage("そして、イモを用いて何かを企むものの……")
    ShowMessage("それもすぐに飽き、投げ出してしまいます。")
    ShowMessageFace("ruka_fc1",0,0,2,8)
    ShowMessage("【ルカ】")
    ShowMessage("エヴァは、いつだってそうだ……")
    ShowMessage("そうやってずっと、何でも投げ出して生きてきた！")
    ShowMessageFace("ruka_fc1",0,0,2,9)
    ShowMessage("【ルカ】")
    ShowMessage("そしてエヴァは、机の上にあったプリンを見つけた。")
    ShowMessage("その蓋には、「アリス」と書いてあった……")
    ShowMessageFace("ruka_fc1",0,0,2,10)
    ShowMessage("【ルカ】")
    ShowMessage("もちろんエヴァは、そのプリンを平気で食べてしまいます。")
    ShowMessage("甘かったでしょう……美味しかったでしょう……")
    ShowMessageFace("ruka_fc1",0,0,2,11)
    ShowMessage("【ルカ】")
    ShowMessage("そこに現れたのが、プリンの持ち主であるアリスだった。")
    ShowMessage("当然二人は争いになり、棍棒でエヴァの頭を強打してしまう。")
    ShowMessageFace("alice_fc6",0,0,2,12)
    ShowMessage("【アリス】")
    ShowMessage("ぐぬぬ……！")
    ShowMessageFace("ruka_fc1",0,0,2,13)
    ShowMessage("【ルカ】")
    ShowMessage("犯行後、アリスは凶器の棍棒をその場に放置しておいた。")
    ShowMessage("ソニアの仕業に見せかけるため……")
    ShowMessageFace("sonia_fc2",3,0,2,14)
    ShowMessage("【ソニア】")
    ShowMessage("ひどーい……")
    ShowMessageFace("ruka_fc1",0,0,2,15)
    ShowMessage("【ルカ】")
    ShowMessage("……しかし、そんな小細工も通用しなかったわけだ。")
    ShowMessage("さあアリス、年貢の納め時だ！！")
    ShowMessageFace("alice_fc6",1,0,2,16)
    ShowMessage("【アリス】")
    ShowMessage("余が、余が悪いのではない！")
    ShowMessage("エヴァが、余の大切なプリンを――！！")
    ShowMessageFace("ruka_fc1",0,0,2,17)
    ShowMessage("【ルカ】")
    ShowMessage("思えば、悲しい事件でした。")
    ShowMessage("エヴァに少しでも自制心があれば、こんな悲劇は防げたのに……")
    ShowMessageFace("eva_fc1",0,0,2,18)
    ShowMessage("【エヴァ】")
    ShowMessage("自制心？　それって、おいしいの？")
    249(bytes(0x04,0x08,0x6f,0x3a,0x0c,0x52,0x50,0x47,0x3a,0x3a,0x4d,0x45,0x08,0x3a,0x0a,0x40,0x6e,0x61,0x6d,0x65,0x49,0x22,0x09,0x6c,0x76,0x75,0x70,0x06,0x3a,0x06,0x45,0x54,0x3a,0x0b,0x40,0x70,0x69,0x74,0x63,0x68,0x69,0x69,0x3a,0x0c,0x40,0x76,0x6f,0x6c,0x75,0x6d,0x65,0x69,0x69))
    ShowMessageFace("",0,0,2,19)
    ShowMessage("真犯人を指摘し、事件を解決に導いた！")
    ShowMessage("報酬として、装備品が贈られる！")
    250(bytes(0x04,0x08,0x6f,0x3a,0x0c,0x52,0x50,0x47,0x3a,0x3a,0x53,0x45,0x08,0x3a,0x0a,0x40,0x6e,0x61,0x6d,0x65,0x49,0x22,0x0a,0x49,0x74,0x65,0x6d,0x31,0x06,0x3a,0x06,0x45,0x54,0x3a,0x0b,0x40,0x70,0x69,0x74,0x63,0x68,0x69,0x69,0x3a,0x0c,0x40,0x76,0x6f,0x6c,0x75,0x6d,0x65,0x69,0x55))
    ChangeInventoryWeapon(1368,0,0,1,false)
    Wait(60)
    ChangeVariable(121,121,2,0,1)
    RunCommonEvent(901)
    EndEventProcessing()
    0()
   IfPlayerPicksChoice(1,null)
    ShowMessageFace("ruka_fc1",0,0,2,20)
    ShowMessage("【ルカ】")
    ShowMessage("事件の犯人は……ソニア、君に決めた！")
    ShowMessageFace("sonia_fc3",2,0,2,21)
    ShowMessage("【ソニア】")
    ShowMessage("ちょっと、なんであたしなのよ！")
    ShowMessageFace("ruka_fc1",0,0,2,22)
    ShowMessage("【ルカ】")
    ShowMessage("なぜなら、凶器が棍棒だからだ。")
    ShowMessage("つまり、犯人は君だ！")
    ShowMessageFace("sonia_fc2",2,0,2,23)
    ShowMessage("【ソニア】")
    ShowMessage("でもあたし、その時間はヌルコにエサをあげてたけど……")
    ShowMessageFace("ruka_fc1",0,0,2,24)
    ShowMessage("【ルカ】")
    ShowMessage("ん！？　まちがったかな……")
    ShowMessageFace("",0,0,2,25)
    ShowMessage("犯人当てに失敗し、事件は迷宮入りとなった……")
    ShowMessage("残念賞として、アクセサリが贈られる！")
    250(bytes(0x04,0x08,0x6f,0x3a,0x0c,0x52,0x50,0x47,0x3a,0x3a,0x53,0x45,0x08,0x3a,0x0a,0x40,0x6e,0x61,0x6d,0x65,0x49,0x22,0x0a,0x49,0x74,0x65,0x6d,0x31,0x06,0x3a,0x06,0x45,0x54,0x3a,0x0b,0x40,0x70,0x69,0x74,0x63,0x68,0x69,0x69,0x3a,0x0c,0x40,0x76,0x6f,0x6c,0x75,0x6d,0x65,0x69,0x55))
    ChangeInventoryArmor(3651,0,0,1,false)
    Wait(60)
    ChangeVariable(121,121,2,0,1)
    RunCommonEvent(901)
    EndEventProcessing()
    0()
   IfPlayerPicksChoice(2,null)
    ShowMessageFace("ruka_fc1",0,0,2,26)
    ShowMessage("【ルカ】")
    ShowMessage("事件の犯人は……サキちゃんに違いない！")
    ShowMessageFace("saki_fc1",2,0,2,27)
    ShowMessage("【サキ】")
    ShowMessage("え～？　なんであたしなの……？")
    ShowMessageFace("ruka_fc1",0,0,2,28)
    ShowMessage("【ルカ】")
    ShowMessage("だってほら、サキちゃんの歌の楽譜が落ちてたから……")
    ShowMessageFace("saki_fc1",2,0,2,29)
    ShowMessage("【サキ】")
    ShowMessage("なんで楽譜が落ちてたら、犯人になっちゃうの？")
    ShowMessage("そんなの、全然証拠じゃないじゃん……")
    ShowMessageFace("ruka_fc1",0,0,2,30)
    ShowMessage("【ルカ】")
    ShowMessage("ん！？　まちがったかな……")
    ShowMessageFace("",0,0,2,31)
    ShowMessage("犯人当てに失敗し、事件は迷宮入りとなった……")
    ShowMessage("残念賞として、アクセサリが贈られる！")
    250(bytes(0x04,0x08,0x6f,0x3a,0x0c,0x52,0x50,0x47,0x3a,0x3a,0x53,0x45,0x08,0x3a,0x0a,0x40,0x6e,0x61,0x6d,0x65,0x49,0x22,0x0a,0x49,0x74,0x65,0x6d,0x31,0x06,0x3a,0x06,0x45,0x54,0x3a,0x0b,0x40,0x70,0x69,0x74,0x63,0x68,0x69,0x69,0x3a,0x0c,0x40,0x76,0x6f,0x6c,0x75,0x6d,0x65,0x69,0x55))
    ChangeInventoryArmor(3651,0,0,1,false)
    Wait(60)
    ChangeVariable(121,121,2,0,1)
    RunCommonEvent(901)
    EndEventProcessing()
    0()
   IfPlayerPicksChoice(3,null)
    ShowMessageFace("ruka_fc1",0,0,2,32)
    ShowMessage("【ルカ】")
    ShowMessage("事件の犯人は……分かった、たぶん村長だ！")
    ShowMessageFace("succubus_fc1",0,0,2,33)
    ShowMessage("【サキュバス】")
    ShowMessage("あら……なんで、私なのかしら？")
    ShowMessageFace("ruka_fc1",0,0,2,34)
    ShowMessage("【ルカ】")
    ShowMessage("なぜなら、イモが落ちてたからだ……")
    ShowMessage("イモを捨てたエヴァに激怒し、撲殺したんだよ。")
    ShowMessageFace("succubus_fc1",1,0,2,35)
    ShowMessage("【サキュバス】")
    ShowMessage("それはとっても素敵な考えだけれど……")
    ShowMessage("その時間、私はメイドと一緒に芋料理を作っていたわ。")
    ShowMessageFace("ruka_fc1",0,0,2,36)
    ShowMessage("【ルカ】")
    ShowMessage("ん！？　まちがったかな……")
    ShowMessageFace("",0,0,2,37)
    ShowMessage("犯人当てに失敗し、事件は迷宮入りとなった……")
    ShowMessage("残念賞として、アクセサリが贈られる！")
    250(bytes(0x04,0x08,0x6f,0x3a,0x0c,0x52,0x50,0x47,0x3a,0x3a,0x53,0x45,0x08,0x3a,0x0a,0x40,0x6e,0x61,0x6d,0x65,0x49,0x22,0x0a,0x49,0x74,0x65,0x6d,0x31,0x06,0x3a,0x06,0x45,0x54,0x3a,0x0b,0x40,0x70,0x69,0x74,0x63,0x68,0x69,0x69,0x3a,0x0c,0x40,0x76,0x6f,0x6c,0x75,0x6d,0x65,0x69,0x55))
    ChangeInventoryArmor(3651,0,0,1,false)
    Wait(60)
    ChangeVariable(121,121,2,0,1)
    RunCommonEvent(901)
    EndEventProcessing()
    0()
   404()
   0()
  IfPlayerPicksChoice(1,null)
   EndEventProcessing()
   0()
  404()
  0()
 PAGE   2
  // condition: variable 126 >= 1
  ShowMessageFace("ruka_fc1",0,0,2,1)
  ShowMessage("【ルカ】")
  ShowMessage("さて、そろそろいいかな……？")
  ShowChoices(strings("犯人を指名する","まだ調べる事がある"),2)
  IfPlayerPicksChoice(0,null)
   217()
   205(-1,bytes(0x04,0x08,0x6f,0x3a,0x13,0x52,0x50,0x47,0x3a,0x3a,0x4d,0x6f,0x76,0x65,0x52,0x6f,0x75,0x74,0x65,0x09,0x3a,0x0c,0x40,0x72,0x65,0x70,0x65,0x61,0x74,0x46,0x3a,0x0f,0x40,0x73,0x6b,0x69,0x70,0x70,0x61,0x62,0x6c,0x65,0x46,0x3a,0x0a,0x40,0x77,0x61,0x69,0x74,0x54,0x3a,0x0a,0x40,0x6c,0x69,0x73,0x74,0x5b,0x07,0x6f,0x3a,0x15,0x52,0x50,0x47,0x3a,0x3a,0x4d,0x6f,0x76,0x65,0x43,0x6f,0x6d,0x6d,0x61,0x6e,0x64,0x07,0x3a,0x0a,0x40,0x63,0x6f,0x64,0x65,0x69,0x17,0x3a,0x10,0x40,0x70,0x61,0x72,0x61,0x6d,0x65,0x74,0x65,0x72,0x73,0x5b,0x00,0x6f,0x3b,0x0a,0x07,0x3b,0x0b,0x69,0x00,0x3b,0x0c,0x5b,0x00))
   ShowMessageFace("ruka_fc1",0,0,2,2)
   ShowMessage("【ルカ】")
   ShowMessage("それでは、犯人を当てましょう。")
   ShowMessage("この事件の犯人は――")
   ShowChoices(strings("グランベリア","アルマエルマ","たまも","エルベティエ"),0)
   IfPlayerPicksChoice(0,null)
    ShowMessageFace("ruka_fc1",0,0,2,3)
    ShowMessage("【ルカ】")
    ShowMessage("事件の犯人は……そうか、グランベリアだな！")
    ShowMessageFace("granberia_fc4",2,0,2,4)
    ShowMessage("【グランベリア】")
    ShowMessage("わ、私は違うぞ！　なぜ私が犯人なんだ！？")
    ShowMessageFace("ruka_fc1",0,0,2,5)
    ShowMessage("【ルカ】")
    ShowMessage("なんだか怪しいし、模擬戦をやってたみたいだし……")
    ShowMessage("バトルが白熱して、うっかり撲殺したんじゃないかな？")
    ShowMessageFace("granberia_fc4",2,0,2,6)
    ShowMessage("【グランベリア】")
    ShowMessage("証拠がない！　証拠を出せ！")
    ShowMessage("そうでない限り、私は認めないぞ！")
    ShowMessageFace("ruka_fc1",0,0,2,7)
    ShowMessage("【ルカ】")
    ShowMessage("ん！？　まちがったかな……")
    ShowMessageFace("",0,0,2,8)
    ShowMessage("犯人当てに失敗し、事件は迷宮入りとなった……")
    ShowMessage("残念賞として、アクセサリが贈られる！")
    250(bytes(0x04,0x08,0x6f,0x3a,0x0c,0x52,0x50,0x47,0x3a,0x3a,0x53,0x45,0x08,0x3a,0x0a,0x40,0x6e,0x61,0x6d,0x65,0x49,0x22,0x0a,0x49,0x74,0x65,0x6d,0x31,0x06,0x3a,0x06,0x45,0x54,0x3a,0x0b,0x40,0x70,0x69,0x74,0x63,0x68,0x69,0x69,0x3a,0x0c,0x40,0x76,0x6f,0x6c,0x75,0x6d,0x65,0x69,0x55))
    ChangeInventoryArmor(3652,0,0,1,false)
    Wait(60)
    ChangeVariable(121,121,2,0,1)
    RunCommonEvent(901)
    EndEventProcessing()
    0()
   IfPlayerPicksChoice(1,null)
    ShowMessageFace("ruka_fc1",0,0,2,9)
    ShowMessage("【ルカ】")
    ShowMessage("事件の犯人は……よし、アルマエルマだ！")
    ShowMessageFace("arumaeruma_fc2",2,0,2,10)
    ShowMessage("【アルマエルマ】")
    ShowMessage("ちょっと、なんで私なの……？")
    ShowMessageFace("ruka_fc1",0,0,2,11)
    ShowMessage("【ルカ】")
    ShowMessage("ダイイングメッセージの「ア マエル」っていうのは……")
    ShowMessage("「アルマエルマ」の「ル」と「マ」を消したものだ！")
    ShowMessageFace("ruka_fc1",0,0,2,12)
    ShowMessage("【ルカ】")
    ShowMessage("つまりアリスは、死に際に犯人の名を記していたんだ！")
    ShowMessage("しかしアルマエルマは、ダイイングメッセージに細工した！")
    ShowMessageFace("arumaeruma_fc2",0,0,2,13)
    ShowMessage("【アルマエルマ】")
    ShowMessage("ふふっ、よく考えたわね。")
    ShowMessage("でもその時間、私はコロシアムで羊娘を蹴っていたわよ。")
    ShowMessageFace("ruka_fc1",0,0,2,14)
    ShowMessage("【ルカ】")
    ShowMessage("ん！？　まちがったかな……")
    ShowMessageFace("",0,0,2,15)
    ShowMessage("犯人当てに失敗し、事件は迷宮入りとなった……")
    ShowMessage("残念賞として、アクセサリが贈られる！")
    250(bytes(0x04,0x08,0x6f,0x3a,0x0c,0x52,0x50,0x47,0x3a,0x3a,0x53,0x45,0x08,0x3a,0x0a,0x40,0x6e,0x61,0x6d,0x65,0x49,0x22,0x0a,0x49,0x74,0x65,0x6d,0x31,0x06,0x3a,0x06,0x45,0x54,0x3a,0x0b,0x40,0x70,0x69,0x74,0x63,0x68,0x69,0x69,0x3a,0x0c,0x40,0x76,0x6f,0x6c,0x75,0x6d,0x65,0x69,0x55))
    ChangeInventoryArmor(3652,0,0,1,false)
    Wait(60)
    ChangeVariable(121,121,2,0,1)
    RunCommonEvent(901)
    EndEventProcessing()
    0()
   IfPlayerPicksChoice(2,null)
    ShowMessageFace("ruka_fc1",0,0,2,16)
    ShowMessage("【ルカ】")
    ShowMessage("事件の犯人は……")
    ShowMessage("……それを指摘する前に、何があったかを見ていきましょう。")
    ShowMessageFace("ruka_fc1",0,0,2,17)
    ShowMessage("【ルカ】")
    ShowMessage("あの時、この部屋では何が行われていたかは明らかです。")
    ShowMessage("アリスとグランベリアが、模擬戦を行っていたんですよ……")
    ShowMessageFace("granberia_fc4",2,0,2,18)
    ShowMessage("【グランベリア】")
    ShowMessage("そ、その通りだ……")
    ShowMessage("別に、隠していたわけではないぞ……")
    ShowMessageFace("ruka_fc1",0,0,2,19)
    ShowMessage("【ルカ】")
    ShowMessage("相当に白熱した事は、部屋中の血のりで明らかです。")
    ShowMessage("そんな中、ある事故が起きてしまったんですよ……")
    ShowMessageFace("ruka_fc1",0,0,2,20)
    ShowMessage("【ルカ】")
    ShowMessage("模擬戦による衝撃で、シャンデリアが落下。")
    ShowMessage("真下にいたアリスが、下敷きになってしまったんです。")
    ShowMessageFace("granberia_fc4",2,0,2,21)
    ShowMessage("【グランベリア】")
    ShowMessage("…………！！")
    ShowMessageFace("sonia_fc2",2,0,2,22)
    ShowMessage("【ソニア】")
    ShowMessage("じゃあ……グランベリアが犯人ってこと？")
    ShowMessageFace("ruka_fc1",0,0,2,23)
    ShowMessage("【ルカ】")
    ShowMessage("いえ……そんな単純な話ではありません。")
    ShowMessage("グランベリアはおそらく、救護を呼びに部屋を出たのでしょう。")
    ShowMessageFace("granberia_fc4",2,0,2,24)
    ShowMessage("【グランベリア】")
    ShowMessage("そ、その通りだ！")
    ShowMessage("救護を呼びに部屋を出た時、確かに魔王様には息があった！")
    ShowMessageFace("ruka_fc1",0,0,2,25)
    ShowMessage("【ルカ】")
    ShowMessage("しかし……グランベリアが部屋を出た隙に、")
    ShowMessage("アリスを殺害した者がいたんです。")
    ShowMessageFace("ruka_fc1",0,0,2,26)
    ShowMessage("【ルカ】")
    ShowMessage("その犯人は……たまもだ！")
    ShowMessageFace("tamamo_fc1",3,0,2,27)
    ShowMessage("【たまも】")
    ShowMessage("ほう……いったいなぜ、ウチが犯人だと？")
    ShowMessageFace("ruka_fc1",0,0,2,28)
    ShowMessage("【ルカ】")
    ShowMessage("狐の毛が、部屋に落ちていたんです。")
    ShowMessage("あなたは、この部屋に立ち入っていないんですよね……？")
    ShowMessageFace("tamamo_fc1",3,0,2,29)
    ShowMessage("【たまも】")
    ShowMessage("むむむ……")
    ShowMessageFace("ruka_fc1",0,0,2,30)
    ShowMessage("【ルカ】")
    ShowMessage("さらにたまもは、アリスを殺害した後……")
    ShowMessage("「アルマエルマ」と、偽のダイイングメッセージを施しました。")
    ShowMessageFace("sonia_fc2",2,0,2,31)
    ShowMessage("【ソニア】")
    ShowMessage("じゃあ、「ア マエル」ってメッセージは……")
    ShowMessageFace("ruka_fc1",0,0,2,32)
    ShowMessage("【ルカ】")
    ShowMessage("たまもは、捜査の混乱を狙ったんでしょうが……")
    ShowMessage("それを、アルマエルマ当人が目にしてしまった。")
    ShowMessageFace("ruka_fc1",0,0,2,33)
    ShowMessage("【ルカ】")
    ShowMessage("自分が疑われる事を恐れたアルマエルマは、")
    ShowMessage("メッセージの「ル」と「マ」を消して「ア マエル」にしたんです。")
    ShowMessageFace("arumaeruma_fc2",7,0,2,34)
    ShowMessage("【アルマエルマ】")
    ShowMessage("その通りよ……")
    ShowMessage("無実の罪で、疑われるなんてイヤだものね。")
    ShowMessageFace("ruka_fc1",0,0,2,35)
    ShowMessage("【ルカ】")
    ShowMessage("無実の罪で疑われたくなかったのは、グランベリアも同じ。")
    ShowMessage("ゆえに、模擬戦の事は黙っていたんでしょう。")
    ShowMessageFace("granberia_fc4",0,0,2,36)
    ShowMessage("【グランベリア】")
    ShowMessage("その通りだ……")
    ShowMessage("あの状況では、どう考えても私に疑いが向くからな。")
    ShowMessageFace("ruka_fc1",0,0,2,37)
    ShowMessage("【ルカ】")
    ShowMessage("事件の経過は以上です。")
    ShowMessage("たまもさん、何か言いたい事はありますか……？")
    ShowMessageFace("tamamo_fc1",3,0,2,38)
    ShowMessage("【たまも】")
    ShowMessage("ウチは、キツネ王国を築きたかったのじゃ！")
    ShowMessage("それには、魔王様が邪魔だったのじゃ！")
    ShowMessageFace("ruka_fc1",0,0,2,39)
    ShowMessage("【ルカ】")
    ShowMessage("種族間の諍いが、この悲劇を生んだ……")
    ShowMessage("とても悲しい事件でした。")
    ShowMessageFace("alice_fc5",3,0,2,40)
    ShowMessage("【アリス】")
    ShowMessage("おのれ、キツネめ……")
    249(bytes(0x04,0x08,0x6f,0x3a,0x0c,0x52,0x50,0x47,0x3a,0x3a,0x4d,0x45,0x08,0x3a,0x0a,0x40,0x6e,0x61,0x6d,0x65,0x49,0x22,0x09,0x6c,0x76,0x75,0x70,0x06,0x3a,0x06,0x45,0x54,0x3a,0x0b,0x40,0x70,0x69,0x74,0x63,0x68,0x69,0x69,0x3a,0x0c,0x40,0x76,0x6f,0x6c,0x75,0x6d,0x65,0x69,0x69))
    ShowMessageFace("",0,0,2,41)
    ShowMessage("真犯人を指摘し、事件を解決に導いた！")
    ShowMessage("報酬として、装備品が贈られる！")
    250(bytes(0x04,0x08,0x6f,0x3a,0x0c,0x52,0x50,0x47,0x3a,0x3a,0x53,0x45,0x08,0x3a,0x0a,0x40,0x6e,0x61,0x6d,0x65,0x49,0x22,0x0a,0x49,0x74,0x65,0x6d,0x31,0x06,0x3a,0x06,0x45,0x54,0x3a,0x0b,0x40,0x70,0x69,0x74,0x63,0x68,0x69,0x69,0x3a,0x0c,0x40,0x76,0x6f,0x6c,0x75,0x6d,0x65,0x69,0x55))
    ChangeInventoryWeapon(3068,0,0,1,false)
    Wait(60)
    ChangeVariable(121,121,2,0,1)
    RunCommonEvent(901)
    EndEventProcessing()
    0()
   IfPlayerPicksChoice(3,null)
    ShowMessageFace("ruka_fc1",0,0,2,42)
    ShowMessage("【ルカ】")
    ShowMessage("事件の犯人は……おおかたエルベティエの仕業だな！")
    ShowMessageFace("erbetie_fc1",0,0,2,43)
    ShowMessage("【エルベティエ】")
    ShowMessage("なぜ、私が……？")
    ShowMessageFace("ruka_fc1",0,0,2,44)
    ShowMessage("【ルカ】")
    ShowMessage("なんだろう……理由は特にないけど。")
    ShowMessageFace("erbetie_fc1",0,0,2,45)
    ShowMessage("【エルベティエ】")
    ShowMessage("その時間、私はスライム娘達と遊んでいたわ……")
    ShowMessage("あの子達が証人になってくれるはずよ。")
    ShowMessageFace("ruka_fc1",0,0,2,46)
    ShowMessage("【ルカ】")
    ShowMessage("ん！？　まちがったかな……")
    ShowMessageFace("",0,0,2,47)
    ShowMessage("犯人当てに失敗し、事件は迷宮入りとなった……")
    ShowMessage("残念賞として、アクセサリが贈られる！")
    250(bytes(0x04,0x08,0x6f,0x3a,0x0c,0x52,0x50,0x47,0x3a,0x3a,0x53,0x45,0x08,0x3a,0x0a,0x40,0x6e,0x61,0x6d,0x65,0x49,0x22,0x0a,0x49,0x74,0x65,0x6d,0x31,0x06,0x3a,0x06,0x45,0x54,0x3a,0x0b,0x40,0x70,0x69,0x74,0x63,0x68,0x69,0x69,0x3a,0x0c,0x40,0x76,0x6f,0x6c,0x75,0x6d,0x65,0x69,0x55))
    ChangeInventoryArmor(3652,0,0,1,false)
    Wait(60)
    ChangeVariable(121,121,2,0,1)
    RunCommonEvent(901)
    EndEventProcessing()
    0()
   404()
   0()
  IfPlayerPicksChoice(1,null)
   EndEventProcessing()
   0()
  404()
  0()
 PAGE   3
  // condition: variable 126 >= 2
  ShowMessageFace("ruka_fc1",0,0,2,1)
  ShowMessage("【ルカ】")
  ShowMessage("さて、そろそろいいかな……？")
  ShowChoices(strings("犯人を指名する","まだ調べる事がある"),2)
  IfPlayerPicksChoice(0,null)
   217()
   205(-1,bytes(0x04,0x08,0x6f,0x3a,0x13,0x52,0x50,0x47,0x3a,0x3a,0x4d,0x6f,0x76,0x65,0x52,0x6f,0x75,0x74,0x65,0x09,0x3a,0x0c,0x40,0x72,0x65,0x70,0x65,0x61,0x74,0x46,0x3a,0x0f,0x40,0x73,0x6b,0x69,0x70,0x70,0x61,0x62,0x6c,0x65,0x46,0x3a,0x0a,0x40,0x77,0x61,0x69,0x74,0x54,0x3a,0x0a,0x40,0x6c,0x69,0x73,0x74,0x5b,0x07,0x6f,0x3a,0x15,0x52,0x50,0x47,0x3a,0x3a,0x4d,0x6f,0x76,0x65,0x43,0x6f,0x6d,0x6d,0x61,0x6e,0x64,0x07,0x3a,0x0a,0x40,0x63,0x6f,0x64,0x65,0x69,0x17,0x3a,0x10,0x40,0x70,0x61,0x72,0x61,0x6d,0x65,0x74,0x65,0x72,0x73,0x5b,0x00,0x6f,0x3b,0x0a,0x07,0x3b,0x0b,0x69,0x00,0x3b,0x0c,0x5b,0x00))
   ShowMessageFace("ruka_fc1",0,0,2,2)
   ShowMessage("【ルカ】")
   ShowMessage("それでは、犯人を当てましょう。")
   ShowMessage("この事件の犯人は――")
   ShowChoices(strings("ミカエラちゃん","ルシフィナちゃん","プロメスティン","エデン"),0)
   IfPlayerPicksChoice(0,null)
    ShowMessageFace("ruka_fc1",0,0,2,3)
    ShowMessage("【ルカ】")
    ShowMessage("事件の犯人は……そうか、ミカエラちゃんだな！")
    ShowMessageFace("micaelac_fc1",0,0,2,4)
    ShowMessage("【ミカエラちゃん】")
    ShowMessage("私？　証拠でもあるの……？")
    ShowMessageFace("ruka_fc1",0,0,2,5)
    ShowMessage("【ルカ】")
    ShowMessage("なんか……隙があれば、やっちゃいそうだし。")
    ShowMessageFace("micaelac_fc1",0,0,2,6)
    ShowMessage("【ミカエラちゃん】")
    ShowMessage("その時間、私はエデン姉さんとご飯を食べてたの。")
    ShowMessage("だから、犯人じゃないわよ……")
    ShowMessageFace("ruka_fc1",0,0,2,7)
    ShowMessage("【ルカ】")
    ShowMessage("ん！？　まちがったかな……")
    ShowMessageFace("",0,0,2,8)
    ShowMessage("犯人当てに失敗し、事件は迷宮入りとなった……")
    ShowMessage("残念賞として、アクセサリが贈られる！")
    250(bytes(0x04,0x08,0x6f,0x3a,0x0c,0x52,0x50,0x47,0x3a,0x3a,0x53,0x45,0x08,0x3a,0x0a,0x40,0x6e,0x61,0x6d,0x65,0x49,0x22,0x0a,0x49,0x74,0x65,0x6d,0x31,0x06,0x3a,0x06,0x45,0x54,0x3a,0x0b,0x40,0x70,0x69,0x74,0x63,0x68,0x69,0x69,0x3a,0x0c,0x40,0x76,0x6f,0x6c,0x75,0x6d,0x65,0x69,0x55))
    ChangeInventoryArmor(3653,0,0,1,false)
    Wait(60)
    ChangeVariable(121,121,2,0,1)
    RunCommonEvent(901)
    EndEventProcessing()
    0()
   IfPlayerPicksChoice(1,null)
    ShowMessageFace("ruka_fc1",0,0,2,9)
    ShowMessage("【ルカ】")
    ShowMessage("事件の犯人は……ルシフィナちゃんだ！")
    ShowMessageFace("rucyfinac_fc1",4,0,2,10)
    ShowMessage("【ルシフィナちゃん】")
    ShowMessage("ご、ごめんなさ～い！！")
    ShowMessageFace("eden_fc1",2,0,2,11)
    ShowMessage("【エデン】")
    ShowMessage("おおお、イリアス様～！　あぁぁぁ～！！")
    ShowMessageFace("stein_fc2",1,0,2,12)
    ShowMessage("【プロメスティン】")
    ShowMessage("なんと、ルシフィナちゃんの仕業だったとは……")
    ShowMessage("イリアス様を謀殺するなんて、実に腹黒ですね。")
    ShowMessageFace("ruka_fc1",0,0,2,13)
    ShowMessage("【ルカ】")
    ShowMessage("……いえ、これは不幸な事故だったのですよ。")
    ShowMessage("イリアス様とルシフィナちゃんは、この部屋で遊んでいたんです。")
    ShowMessageFace("ruka_fc1",0,0,2,14)
    ShowMessage("【ルカ】")
    ShowMessage("最初は、ビー玉や竹トンボで遊んでいたのですが……")
    ShowMessage("その後、バイオレンスな遊びが始まりました。")
    ShowMessageFace("ruka_fc1",0,0,2,15)
    ShowMessage("【ルカ】")
    ShowMessage("それは、ぐるぐる遊び……")
    ShowMessage("ルシフィナちゃんは、イリアス様をぐるぐると振り回したんです。")
    ShowMessageFace("ruka_fc1",0,0,2,16)
    ShowMessage("【ルカ】")
    ShowMessage("こうして、怪力で壁や床に叩きつけられたイリアス様は……")
    ShowMessage("死にました。")
    ShowMessageFace("rucyfinac_fc1",4,0,2,17)
    ShowMessage("【ルシフィナちゃん】")
    ShowMessage("わざとじゃないの～！！")
    ShowMessageFace("eden_fc1",2,0,2,18)
    ShowMessage("【エデン】")
    ShowMessage("おぉぉ……あぁぁ……イ、イリアス様～！")
    ShowMessageFace("sonia_fc2",2,0,2,19)
    ShowMessage("【ソニア】")
    ShowMessage("でも、遺体の側にあった難しそうな本は？")
    ShowMessage("あれはプロメスティンの本じゃないの……？")
    ShowMessageFace("micaelac_fc1",0,0,2,20)
    ShowMessage("【ミカエラちゃん】")
    ShowMessage("あの本は、私が置いたの……")
    ShowMessage("妹をかばうために……")
    ShowMessageFace("ruka_fc1",0,0,2,21)
    ShowMessage("【ルカ】")
    ShowMessage("以上です……思えば、悲しい事件でした。")
    ShowMessage("無垢な遊びが、こんな悲劇に繋がってしまうなんて……")
    ShowMessageFace("eden_fc1",2,0,2,22)
    ShowMessage("【エデン】")
    ShowMessage("あぁぁぁ……イリアス様～！")
    249(bytes(0x04,0x08,0x6f,0x3a,0x0c,0x52,0x50,0x47,0x3a,0x3a,0x4d,0x45,0x08,0x3a,0x0a,0x40,0x6e,0x61,0x6d,0x65,0x49,0x22,0x09,0x6c,0x76,0x75,0x70,0x06,0x3a,0x06,0x45,0x54,0x3a,0x0b,0x40,0x70,0x69,0x74,0x63,0x68,0x69,0x69,0x3a,0x0c,0x40,0x76,0x6f,0x6c,0x75,0x6d,0x65,0x69,0x69))
    ShowMessageFace("",0,0,2,23)
    ShowMessage("真犯人を指摘し、事件を解決に導いた！")
    ShowMessage("報酬として、装備品が贈られる！")
    250(bytes(0x04,0x08,0x6f,0x3a,0x0c,0x52,0x50,0x47,0x3a,0x3a,0x53,0x45,0x08,0x3a,0x0a,0x40,0x6e,0x61,0x6d,0x65,0x49,0x22,0x0a,0x49,0x74,0x65,0x6d,0x31,0x06,0x3a,0x06,0x45,0x54,0x3a,0x0b,0x40,0x70,0x69,0x74,0x63,0x68,0x69,0x69,0x3a,0x0c,0x40,0x76,0x6f,0x6c,0x75,0x6d,0x65,0x69,0x55))
    ChangeInventoryWeapon(2569,0,0,1,false)
    Wait(120)
    ShowMessageFace("micaelac_fc1",2,0,2,24)
    ShowMessage("【ミカエラちゃん】")
    ShowMessage("……うまくいったわね。")
    ShowMessageFace("rucyfinac_fc1",1,0,2,25)
    ShowMessage("【ルシフィナちゃん】")
    ShowMessage("……うん♪")
    Wait(60)
    ChangeVariable(121,121,2,0,1)
    RunCommonEvent(901)
    EndEventProcessing()
    0()
   IfPlayerPicksChoice(2,null)
    ShowMessageFace("ruka_fc1",0,0,2,26)
    ShowMessage("【ルカ】")
    ShowMessage("事件の犯人は……きっとプロメスティンだ！")
    ShowMessageFace("stein_fc2",0,0,2,27)
    ShowMessage("【プロメスティン】")
    ShowMessage("なぜ、私がやったと思うのです……？")
    ShowMessageFace("ruka_fc1",0,0,2,28)
    ShowMessage("【ルカ】")
    ShowMessage("プロメスティンしか読まないような本が、")
    ShowMessage("現場に残されていたからだよ。")
    ShowMessageFace("stein_fc2",0,0,2,29)
    ShowMessage("【プロメスティン】")
    ShowMessage("この私が、自分を示すような本を犯行現場に放置したと……？")
    ShowMessage("エデンじゃあるまいし、そんなミスはしませんよ。")
    ShowMessageFace("ruka_fc1",0,0,2,30)
    ShowMessage("【ルカ】")
    ShowMessage("ん！？　まちがったかな……")
    ShowMessageFace("",0,0,2,31)
    ShowMessage("犯人当てに失敗し、事件は迷宮入りとなった……")
    ShowMessage("残念賞として、アクセサリが贈られる！")
    250(bytes(0x04,0x08,0x6f,0x3a,0x0c,0x52,0x50,0x47,0x3a,0x3a,0x53,0x45,0x08,0x3a,0x0a,0x40,0x6e,0x61,0x6d,0x65,0x49,0x22,0x0a,0x49,0x74,0x65,0x6d,0x31,0x06,0x3a,0x06,0x45,0x54,0x3a,0x0b,0x40,0x70,0x69,0x74,0x63,0x68,0x69,0x69,0x3a,0x0c,0x40,0x76,0x6f,0x6c,0x75,0x6d,0x65,0x69,0x55))
    ChangeInventoryArmor(3653,0,0,1,false)
    Wait(60)
    ChangeVariable(121,121,2,0,1)
    RunCommonEvent(901)
    EndEventProcessing()
    0()
   IfPlayerPicksChoice(3,null)
    ShowMessageFace("ruka_fc1",0,0,2,32)
    ShowMessage("【ルカ】")
    ShowMessage("事件の犯人は……もうエデンでいいや。")
    ShowMessageFace("eden_fc1",2,0,2,33)
    ShowMessage("【エデン】")
    ShowMessage("ああ、イリアス様……イリアス様～～！！")
    ShowMessageFace("ruka_fc1",0,0,2,34)
    ShowMessage("【ルカ】")
    ShowMessage("ねぇ、ちょっと……君が犯人だって、聞いてる？")
    ShowMessageFace("eden_fc1",2,0,2,35)
    ShowMessage("【エデン】")
    ShowMessage("イリアス様……あぁぁぁ……")
    ShowMessage("イ、イリアス様～～！！")
    ShowMessageFace("ruka_fc1",0,0,2,36)
    ShowMessage("【ルカ】")
    ShowMessage("ん！？　まちがったかな……")
    ShowMessageFace("",0,0,2,37)
    ShowMessage("犯人当てに失敗し、事件は迷宮入りとなった……")
    ShowMessage("残念賞として、アクセサリが贈られる！")
    250(bytes(0x04,0x08,0x6f,0x3a,0x0c,0x52,0x50,0x47,0x3a,0x3a,0x53,0x45,0x08,0x3a,0x0a,0x40,0x6e,0x61,0x6d,0x65,0x49,0x22,0x0a,0x49,0x74,0x65,0x6d,0x31,0x06,0x3a,0x06,0x45,0x54,0x3a,0x0b,0x40,0x70,0x69,0x74,0x63,0x68,0x69,0x69,0x3a,0x0c,0x40,0x76,0x6f,0x6c,0x75,0x6d,0x65,0x69,0x55))
    ChangeInventoryArmor(3653,0,0,1,false)
    Wait(60)
    ChangeVariable(121,121,2,0,1)
    RunCommonEvent(901)
    EndEventProcessing()
    0()
   404()
   0()
  IfPlayerPicksChoice(1,null)
   EndEventProcessing()
   0()
  404()
  0()
 PAGE   4
  // condition: variable 126 >= 3
  ShowMessageFace("ruka_fc1",0,0,2,1)
  ShowMessage("【ルカ】")
  ShowMessage("さて、そろそろいいかな……？")
  ShowChoices(strings("犯人を指名する","まだ調べる事がある"),2)
  IfPlayerPicksChoice(0,null)
   217()
   205(-1,bytes(0x04,0x08,0x6f,0x3a,0x13,0x52,0x50,0x47,0x3a,0x3a,0x4d,0x6f,0x76,0x65,0x52,0x6f,0x75,0x74,0x65,0x09,0x3a,0x0c,0x40,0x72,0x65,0x70,0x65,0x61,0x74,0x46,0x3a,0x0f,0x40,0x73,0x6b,0x69,0x70,0x70,0x61,0x62,0x6c,0x65,0x46,0x3a,0x0a,0x40,0x77,0x61,0x69,0x74,0x54,0x3a,0x0a,0x40,0x6c,0x69,0x73,0x74,0x5b,0x07,0x6f,0x3a,0x15,0x52,0x50,0x47,0x3a,0x3a,0x4d,0x6f,0x76,0x65,0x43,0x6f,0x6d,0x6d,0x61,0x6e,0x64,0x07,0x3a,0x0a,0x40,0x63,0x6f,0x64,0x65,0x69,0x17,0x3a,0x10,0x40,0x70,0x61,0x72,0x61,0x6d,0x65,0x74,0x65,0x72,0x73,0x5b,0x00,0x6f,0x3b,0x0a,0x07,0x3b,0x0b,0x69,0x00,0x3b,0x0c,0x5b,0x00))
   ShowMessageFace("ruka_fc1",0,0,2,2)
   ShowMessage("【ルカ】")
   ShowMessage("それでは、犯人を当てましょう。")
   ShowMessage("この事件の犯人は――")
   ShowChoices(strings("ノーム","ウンディーネ","サラマンダー","ヌルコ"),0)
   IfPlayerPicksChoice(0,null)
    ShowMessageFace("ruka_fc1",0,0,2,3)
    ShowMessage("【ルカ】")
    ShowMessage("事件の犯人は……たぶんノームのはずだ！")
    ShowMessageFace("gnome_fc1",0,0,2,4)
    ShowMessage("【ノーム】")
    ShowMessage("……………………")
    ShowMessageFace("ruka_fc1",0,0,2,5)
    ShowMessage("【ルカ】")
    ShowMessage("ねぇ、聞いてる？")
    ShowMessage("君が犯人だ、って言ってるんだけど……")
    ShowMessageFace("gnome_fc1",0,0,2,6)
    ShowMessage("【ノーム】")
    ShowMessage("……………………")
    ShowMessageFace("ruka_fc1",0,0,2,7)
    ShowMessage("【ルカ】")
    ShowMessage("ねぇ、何か言ってよ……")
    ShowMessageFace("",0,0,2,8)
    ShowMessage("犯人当てに失敗し、事件は迷宮入りとなった……")
    ShowMessage("残念賞として、アクセサリが贈られる！")
    250(bytes(0x04,0x08,0x6f,0x3a,0x0c,0x52,0x50,0x47,0x3a,0x3a,0x53,0x45,0x08,0x3a,0x0a,0x40,0x6e,0x61,0x6d,0x65,0x49,0x22,0x0a,0x49,0x74,0x65,0x6d,0x31,0x06,0x3a,0x06,0x45,0x54,0x3a,0x0b,0x40,0x70,0x69,0x74,0x63,0x68,0x69,0x69,0x3a,0x0c,0x40,0x76,0x6f,0x6c,0x75,0x6d,0x65,0x69,0x55))
    ChangeInventoryArmor(3660,0,0,1,false)
    Wait(60)
    ChangeVariable(121,121,2,0,1)
    RunCommonEvent(901)
    EndEventProcessing()
    0()
   IfPlayerPicksChoice(1,null)
    ShowMessageFace("ruka_fc1",0,0,2,9)
    ShowMessage("【ルカ】")
    ShowMessage("事件の犯人は……間違いない、ウンディーネだ！")
    ShowMessageFace("undine_fc1",0,0,2,10)
    ShowMessage("【ウンディーネ】")
    ShowMessage("なぜ、私が犯人なの……？")
    ShowMessageFace("ruka_fc1",0,0,2,11)
    ShowMessage("【ルカ】")
    ShowMessage("それは、シルフが溺れていたからだ。")
    ShowMessage("水の力で殺された以上、ウンディーネが犯人だよ。")
    ShowMessageFace("undine_fc1",1,0,2,12)
    ShowMessage("【ウンディーネ】")
    ShowMessage("その時間、私はサラマンダーと殴り合っていたわ。")
    ShowMessage("よって、私は犯人から除外されるわね……")
    ShowMessageFace("ruka_fc1",0,0,2,13)
    ShowMessage("【ルカ】")
    ShowMessage("ついでに、サラマンダーも除外されるじゃないか！")
    ShowMessage("それ、最初から言ってよ！")
    ShowMessageFace("",0,0,2,14)
    ShowMessage("犯人当てに失敗し、事件は迷宮入りとなった……")
    ShowMessage("残念賞として、アクセサリが贈られる！")
    250(bytes(0x04,0x08,0x6f,0x3a,0x0c,0x52,0x50,0x47,0x3a,0x3a,0x53,0x45,0x08,0x3a,0x0a,0x40,0x6e,0x61,0x6d,0x65,0x49,0x22,0x0a,0x49,0x74,0x65,0x6d,0x31,0x06,0x3a,0x06,0x45,0x54,0x3a,0x0b,0x40,0x70,0x69,0x74,0x63,0x68,0x69,0x69,0x3a,0x0c,0x40,0x76,0x6f,0x6c,0x75,0x6d,0x65,0x69,0x55))
    ChangeInventoryArmor(3660,0,0,1,false)
    Wait(60)
    ChangeVariable(121,121,2,0,1)
    RunCommonEvent(901)
    EndEventProcessing()
    0()
   IfPlayerPicksChoice(2,null)
    ShowMessageFace("ruka_fc1",0,0,2,15)
    ShowMessage("【ルカ】")
    ShowMessage("事件の犯人は……そうだサラマンダーだ！")
    ShowMessageFace("salamander_fc1",2,0,2,16)
    ShowMessage("【サラマンダー】")
    ShowMessage("それは聞き捨てならんな……根拠を示せ！")
    ShowMessageFace("ruka_fc1",0,0,2,17)
    ShowMessage("【ルカ】")
    ShowMessage("それは、シルフが焦げていたからだ。")
    ShowMessage("炎の力で殺された以上、サラマンダーが犯人だよ。")
    ShowMessageFace("salamander_fc1",1,0,2,18)
    ShowMessage("【サラマンダー】")
    ShowMessage("残念だが、その時間にはアリバイがあるぞ。")
    ShowMessage("ウンディーネと戦っていたから、私は犯人から除外される。")
    ShowMessageFace("ruka_fc1",0,0,2,19)
    ShowMessage("【ルカ】")
    ShowMessage("ついでに、ウンディーネも除外されるじゃないか！")
    ShowMessage("それ、最初から言ってよ！")
    ShowMessageFace("",0,0,2,20)
    ShowMessage("犯人当てに失敗し、事件は迷宮入りとなった……")
    ShowMessage("残念賞として、アクセサリが贈られる！")
    250(bytes(0x04,0x08,0x6f,0x3a,0x0c,0x52,0x50,0x47,0x3a,0x3a,0x53,0x45,0x08,0x3a,0x0a,0x40,0x6e,0x61,0x6d,0x65,0x49,0x22,0x0a,0x49,0x74,0x65,0x6d,0x31,0x06,0x3a,0x06,0x45,0x54,0x3a,0x0b,0x40,0x70,0x69,0x74,0x63,0x68,0x69,0x69,0x3a,0x0c,0x40,0x76,0x6f,0x6c,0x75,0x6d,0x65,0x69,0x55))
    ChangeInventoryArmor(3660,0,0,1,false)
    Wait(60)
    ChangeVariable(121,121,2,0,1)
    RunCommonEvent(901)
    EndEventProcessing()
    0()
   IfPlayerPicksChoice(3,null)
    ShowMessageFace("ruka_fc1",0,0,2,21)
    ShowMessage("【ルカ】")
    ShowMessage("……これは、ヌルコの仕業だ！")
    ShowMessageFace("nuruko_fc1",2,0,2,22)
    ShowMessage("【ヌルコ】")
    ShowMessage("……………………")
    ShowMessageFace("salamander_fc1",2,0,2,23)
    ShowMessage("【サラマンダー】")
    ShowMessage("なんと、ヌルコが！？")
    ShowMessage("こいつ、ふしぎなだけでなく危険ないきものだったのか……")
    ShowMessageFace("ruka_fc1",0,0,2,24)
    ShowMessage("【ルカ】")
    ShowMessage("いいえ、それは違います。")
    ShowMessage("むしろヌルコは、親切のつもりでやったんですよ……")
    ShowMessageFace("undine_fc1",0,0,2,25)
    ShowMessage("【ウンディーネ】")
    ShowMessage("親切のつもりで、殺したっていうの……？")
    ShowMessageFace("ruka_fc1",0,0,2,26)
    ShowMessage("【ルカ】")
    ShowMessage("いいえ、ヌルコが殺したんじゃありません……")
    ShowMessage("この事件の大半は、実際のところシルフの自滅だったんです。")
    ShowMessageFace("sonia_fc3",2,0,2,27)
    ShowMessage("【ソニア】")
    ShowMessage("自滅！？")
    ShowMessageFace("ruka_fc1",0,0,2,28)
    ShowMessage("【ルカ】")
    ShowMessage("それでは、事件を追ってみましょう。")
    ShowMessage("シルフは、この部屋で様々ないたずらを企んでいたようですね……")
    ShowMessageFace("ruka_fc1",0,0,2,29)
    ShowMessage("【ルカ】")
    ShowMessage("そして、火を使った悪質ないたずらを思いついたようです。")
    ShowMessage("ニヤニヤ笑いながら、灯油を撒いたところ……")
    250(bytes(0x04,0x08,0x6f,0x3a,0x0c,0x52,0x50,0x47,0x3a,0x3a,0x53,0x45,0x08,0x3a,0x0a,0x40,0x6e,0x61,0x6d,0x65,0x49,0x22,0x0a,0x46,0x69,0x72,0x65,0x32,0x06,0x3a,0x06,0x45,0x54,0x3a,0x0b,0x40,0x70,0x69,0x74,0x63,0x68,0x69,0x69,0x3a,0x0c,0x40,0x76,0x6f,0x6c,0x75,0x6d,0x65,0x69,0x55))
    ShowMessageFace("sylph_fc2",3,0,2,30)
    ShowMessage("【シルフ】")
    ShowMessage("ホギャー！！")
    ShowMessageFace("ruka_fc1",0,0,2,31)
    ShowMessage("【ルカ】")
    ShowMessage("なんと、うっかりミスで自身に引火してしまいました。")
    ShowMessage("慌てて、水の溜めてある壺に飛び込んだところ……")
    250(bytes(0x04,0x08,0x6f,0x3a,0x0c,0x52,0x50,0x47,0x3a,0x3a,0x53,0x45,0x08,0x3a,0x0a,0x40,0x6e,0x61,0x6d,0x65,0x49,0x22,0x0b,0x57,0x61,0x74,0x65,0x72,0x31,0x06,0x3a,0x06,0x45,0x54,0x3a,0x0b,0x40,0x70,0x69,0x74,0x63,0x68,0x69,0x69,0x3a,0x0c,0x40,0x76,0x6f,0x6c,0x75,0x6d,0x65,0x69,0x55))
    ShowMessageFace("sylph_fc2",2,0,2,32)
    ShowMessage("【シルフ】")
    ShowMessage("ごぼごぼ……ごぼごぼ……")
    ShowMessageFace("ruka_fc1",0,0,2,33)
    ShowMessage("【ルカ】")
    ShowMessage("……溺れ死にました。")
    ShowMessageFace("salamander_fc1",2,0,2,34)
    ShowMessage("【サラマンダー】")
    ShowMessage("アホか……")
    ShowMessageFace("undine_fc1",0,0,2,35)
    ShowMessage("【ウンディーネ】")
    ShowMessage("アホね……")
    ShowMessageFace("ruka_fc1",0,0,2,36)
    ShowMessage("【ルカ】")
    ShowMessage("そして……")
    ShowMessage("壺の中で浮いていたシルフを見つけたのが、ヌルコでした。")
    ShowMessageFace("nuruko_fc1",2,0,2,37)
    ShowMessage("【ヌルコ】")
    ShowMessage("きゅ……")
    ShowMessageFace("ruka_fc1",0,0,2,38)
    ShowMessage("【ルカ】")
    ShowMessage("ヌルコは不憫に思い、シルフを埋葬したんです。")
    ShowMessage("ゆえにシルフの遺体は、土の中に埋められていたんですよ。")
    ShowMessageFace("ruka_fc1",0,0,2,39)
    ShowMessage("【ルカ】")
    ShowMessage("つまりヌルコは、死体を彼女なりに葬っただけ……")
    ShowMessage("決してシルフを殺したわけではありません。")
    ShowMessageFace("salamander_fc1",2,0,2,40)
    ShowMessage("【サラマンダー】")
    ShowMessage("……結局、シルフは事故死だったというわけか。")
    ShowMessage("それもとびきりアホな理由で……")
    ShowMessageFace("undine_fc1",0,0,2,41)
    ShowMessage("【ウンディーネ】")
    ShowMessage("まったく、時間の無駄だわ。")
    ShowMessage("次のシルフは、もっと賢いといいわね……")
    ShowMessageFace("sylph_fc2",5,0,2,42)
    ShowMessage("【シルフ】")
    ShowMessage("みんな、ひどい……")
    ShowMessageFace("gnome_fc1",0,0,2,43)
    ShowMessage("【ノーム】")
    ShowMessage("……………………")
    ShowMessageFace("ruka_fc1",0,0,2,44)
    ShowMessage("【ルカ】")
    ShowMessage("これが、ここであった事の全てです。")
    ShowMessage("いたずら心が招いた、実に悲しい事件でした……")
    249(bytes(0x04,0x08,0x6f,0x3a,0x0c,0x52,0x50,0x47,0x3a,0x3a,0x4d,0x45,0x08,0x3a,0x0a,0x40,0x6e,0x61,0x6d,0x65,0x49,0x22,0x09,0x6c,0x76,0x75,0x70,0x06,0x3a,0x06,0x45,0x54,0x3a,0x0b,0x40,0x70,0x69,0x74,0x63,0x68,0x69,0x69,0x3a,0x0c,0x40,0x76,0x6f,0x6c,0x75,0x6d,0x65,0x69,0x69))
    ShowMessageFace("",0,0,2,45)
    ShowMessage("真犯人を指摘し、事件を解決に導いた！")
    ShowMessage("報酬として、装備品が贈られる！")
    250(bytes(0x04,0x08,0x6f,0x3a,0x0c,0x52,0x50,0x47,0x3a,0x3a,0x53,0x45,0x08,0x3a,0x0a,0x40,0x6e,0x61,0x6d,0x65,0x49,0x22,0x0a,0x49,0x74,0x65,0x6d,0x31,0x06,0x3a,0x06,0x45,0x54,0x3a,0x0b,0x40,0x70,0x69,0x74,0x63,0x68,0x69,0x69,0x3a,0x0c,0x40,0x76,0x6f,0x6c,0x75,0x6d,0x65,0x69,0x55))
    ChangeInventoryWeapon(2657,0,0,1,false)
    Wait(60)
    ChangeVariable(121,121,2,0,1)
    RunCommonEvent(901)
    EndEventProcessing()
    0()
   404()
   0()
  IfPlayerPicksChoice(1,null)
   EndEventProcessing()
   0()
  404()
  0()
 PAGE   5
  // condition: variable 126 >= 4
  ShowMessageFace("ruka_fc1",0,0,2,1)
  ShowMessage("【ルカ】")
  ShowMessage("さて、そろそろいいかな……？")
  ShowChoices(strings("犯人を指名する","まだ調べる事がある"),2)
  IfPlayerPicksChoice(0,null)
   217()
   205(-1,bytes(0x04,0x08,0x6f,0x3a,0x13,0x52,0x50,0x47,0x3a,0x3a,0x4d,0x6f,0x76,0x65,0x52,0x6f,0x75,0x74,0x65,0x09,0x3a,0x0c,0x40,0x72,0x65,0x70,0x65,0x61,0x74,0x46,0x3a,0x0f,0x40,0x73,0x6b,0x69,0x70,0x70,0x61,0x62,0x6c,0x65,0x46,0x3a,0x0a,0x40,0x77,0x61,0x69,0x74,0x54,0x3a,0x0a,0x40,0x6c,0x69,0x73,0x74,0x5b,0x07,0x6f,0x3a,0x15,0x52,0x50,0x47,0x3a,0x3a,0x4d,0x6f,0x76,0x65,0x43,0x6f,0x6d,0x6d,0x61,0x6e,0x64,0x07,0x3a,0x0a,0x40,0x63,0x6f,0x64,0x65,0x69,0x17,0x3a,0x10,0x40,0x70,0x61,0x72,0x61,0x6d,0x65,0x74,0x65,0x72,0x73,0x5b,0x00,0x6f,0x3b,0x0a,0x07,0x3b,0x0b,0x69,0x00,0x3b,0x0c,0x5b,0x00))
   ShowMessageFace("ruka_fc1",0,0,2,2)
   ShowMessage("【ルカ】")
   ShowMessage("それでは、犯人を当てましょう。")
   ShowMessage("この事件の犯人は――")
   ShowChoices(strings("ゴブ","プチ","ヴァニラ","パピ"),0)
   IfPlayerPicksChoice(0,null)
    ShowMessageFace("ruka_fc1",0,0,2,3)
    ShowMessage("【ルカ】")
    ShowMessage("事件の犯人は……たぶんゴブだな！")
    ShowMessageFace("gob_fc1",3,0,2,4)
    ShowMessage("【ゴブ】")
    ShowMessage("ボク、ずっと荷物運びしてたんだけど……")
    ShowMessage("プチやパピが潔白を証明してくれるはずだよ。")
    ShowMessageFace("ruka_fc1",0,0,2,5)
    ShowMessage("【ルカ】")
    ShowMessage("ん！？　まちがったかな……")
    ShowMessageFace("",0,0,2,6)
    ShowMessage("犯人当てに失敗し、事件は迷宮入りとなった……")
    ShowMessage("残念賞として、アクセサリが贈られる！")
    250(bytes(0x04,0x08,0x6f,0x3a,0x0c,0x52,0x50,0x47,0x3a,0x3a,0x53,0x45,0x08,0x3a,0x0a,0x40,0x6e,0x61,0x6d,0x65,0x49,0x22,0x0a,0x49,0x74,0x65,0x6d,0x31,0x06,0x3a,0x06,0x45,0x54,0x3a,0x0b,0x40,0x70,0x69,0x74,0x63,0x68,0x69,0x69,0x3a,0x0c,0x40,0x76,0x6f,0x6c,0x75,0x6d,0x65,0x69,0x55))
    ChangeInventoryArmor(3661,0,0,1,false)
    Wait(60)
    ChangeVariable(121,121,2,0,1)
    RunCommonEvent(901)
    EndEventProcessing()
    0()
   IfPlayerPicksChoice(1,null)
    ShowMessageFace("ruka_fc1",0,0,2,7)
    ShowMessage("【ルカ】")
    ShowMessage("事件の犯人は……プチじゃないかな！")
    ShowMessageFace("pramia_fc1",0,0,2,8)
    ShowMessage("【プチ】")
    ShowMessage("あたし、食料品やらの搬入で忙しかったんだから。")
    ShowMessage("ゴブやパピがアリバイを証明してくれるわよ。")
    ShowMessageFace("ruka_fc1",0,0,2,9)
    ShowMessage("【ルカ】")
    ShowMessage("ん！？　まちがったかな……")
    ShowMessageFace("",0,0,2,10)
    ShowMessage("犯人当てに失敗し、事件は迷宮入りとなった……")
    ShowMessage("残念賞として、アクセサリが贈られる！")
    250(bytes(0x04,0x08,0x6f,0x3a,0x0c,0x52,0x50,0x47,0x3a,0x3a,0x53,0x45,0x08,0x3a,0x0a,0x40,0x6e,0x61,0x6d,0x65,0x49,0x22,0x0a,0x49,0x74,0x65,0x6d,0x31,0x06,0x3a,0x06,0x45,0x54,0x3a,0x0b,0x40,0x70,0x69,0x74,0x63,0x68,0x69,0x69,0x3a,0x0c,0x40,0x76,0x6f,0x6c,0x75,0x6d,0x65,0x69,0x55))
    ChangeInventoryArmor(3661,0,0,1,false)
    Wait(60)
    ChangeVariable(121,121,2,0,1)
    RunCommonEvent(901)
    EndEventProcessing()
    0()
   IfPlayerPicksChoice(2,null)
    ShowMessageFace("ruka_fc1",0,0,2,11)
    ShowMessage("【ルカ】")
    ShowMessage("事件の犯人は……ヴァニラだ！")
    ShowMessageFace("vgirl_fc1",2,0,2,12)
    ShowMessage("【ヴァニラ】")
    ShowMessage("なんだと……？")
    ShowMessage("我はずっと、搬入する荷物の用意をしていたのだぞ。")
    ShowMessageFace("ruka_fc1",0,0,2,13)
    ShowMessage("【ルカ】")
    ShowMessage("ええ、ヴァニラが直接手を下したわけではありません。")
    ShowMessage("これは、周到に練られた殺人計画なんですよ。")
    212(3,46,false)
    205(3,bytes(0x04,0x08,0x6f,0x3a,0x13,0x52,0x50,0x47,0x3a,0x3a,0x4d,0x6f,0x76,0x65,0x52,0x6f,0x75,0x74,0x65,0x09,0x3a,0x0c,0x40,0x72,0x65,0x70,0x65,0x61,0x74,0x46,0x3a,0x0f,0x40,0x73,0x6b,0x69,0x70,0x70,0x61,0x62,0x6c,0x65,0x46,0x3a,0x0a,0x40,0x77,0x61,0x69,0x74,0x54,0x3a,0x0a,0x40,0x6c,0x69,0x73,0x74,0x5b,0x09,0x6f,0x3a,0x15,0x52,0x50,0x47,0x3a,0x3a,0x4d,0x6f,0x76,0x65,0x43,0x6f,0x6d,0x6d,0x61,0x6e,0x64,0x07,0x3a,0x0a,0x40,0x63,0x6f,0x64,0x65,0x69,0x29,0x3a,0x10,0x40,0x70,0x61,0x72,0x61,0x6d,0x65,0x74,0x65,0x72,0x73,0x5b,0x00,0x6f,0x3b,0x0a,0x07,0x3b,0x0b,0x69,0x26,0x3b,0x0c,0x5b,0x00,0x6f,0x3b,0x0a,0x07,0x3b,0x0b,0x69,0x16,0x3b,0x0c,0x5b,0x00,0x6f,0x3b,0x0a,0x07,0x3b,0x0b,0x69,0x00,0x3b,0x0c,0x5b,0x00))
    250(bytes(0x04,0x08,0x6f,0x3a,0x0c,0x52,0x50,0x47,0x3a,0x3a,0x53,0x45,0x08,0x3a,0x0a,0x40,0x6e,0x61,0x6d,0x65,0x49,0x22,0x0a,0x48,0x65,0x61,0x6c,0x37,0x06,0x3a,0x06,0x45,0x54,0x3a,0x0b,0x40,0x70,0x69,0x74,0x63,0x68,0x69,0x69,0x3a,0x0c,0x40,0x76,0x6f,0x6c,0x75,0x6d,0x65,0x69,0x55))
    ShowMessageFace("phoenix_fc1",1,0,2,14)
    ShowMessage("【ミニ】")
    ShowMessage("突然だけど……生き返ったぞ！")
    ShowMessageFace("sonia_fc3",2,0,2,15)
    ShowMessage("【ソニア】")
    ShowMessage("被害者が蘇生しちゃった！")
    ShowMessageFace("ruka_fc1",0,0,2,16)
    ShowMessage("【ルカ】")
    ShowMessage("……まあ、気にせず進めましょう。")
    ShowMessage("その時間、一同はプチの宿に荷を仕入れる作業をしていました。")
    ShowMessageFace("ruka_fc1",0,0,2,17)
    ShowMessage("【ルカ】")
    ShowMessage("大量の荷物を運ぶのは、エキスパートのゴブの仕事。")
    ShowMessage("おそらく、この部屋と宿とを高速往復した事でしょう。")
    ShowMessageFace("ruka_fc1",0,0,2,18)
    ShowMessage("【ルカ】")
    ShowMessage("その危険な進路に、ミニを導く罠……")
    ShowMessage("それが、床に並べられたピーナッツだったんです。")
    ShowMessageFace("phoenix_fc1",2,0,2,19)
    ShowMessage("【ミニ】")
    ShowMessage("あのピーナッツは、罠だったのか～！")
    ShowMessage("気付かず拾って食べていたぞ！")
    ShowMessageFace("ruka_fc1",0,0,2,20)
    ShowMessage("【ルカ】")
    ShowMessage("こうして、ふらふらと危険な進路に導き出されたミニに……")
    ShowMessage("高速移動していたゴブが激突！")
    ShowMessageFace("gob_fc1",3,0,2,21)
    ShowMessage("【ゴブ】")
    ShowMessage("うわ、ミニをはねちゃったのか……")
    ShowMessage("ごめん、全然気付かなかったよ。")
    ShowMessageFace("phoenix_fc1",2,0,2,22)
    ShowMessage("【ミニ】")
    ShowMessage("あの衝撃で気付かなかったのか！")
    ShowMessage("あたし、死んだんだぞ！")
    ShowMessageFace("gob_fc1",0,0,2,23)
    ShowMessage("【ゴブ】")
    ShowMessage("まあ、生き返ったからいいじゃない！")
    ShowMessageFace("sonia_fc4",0,0,2,24)
    ShowMessage("【ソニア】")
    ShowMessage("なんなの、この事件……")
    ShowMessageFace("ruka_fc1",0,0,2,25)
    ShowMessage("【ルカ】")
    ShowMessage("さて、以上があの時に起きた事です……")
    ShowMessage("ヴァニラさん、言いたい事はありますか？")
    ShowMessageFace("vgirl_fc1",2,0,2,26)
    ShowMessage("【ヴァニラ】")
    ShowMessage("我は、フェニックスの尾をまとめて手に入れようと……")
    ShowMessage("ぐぬぬ……")
    ShowMessageFace("phoenix_fc1",4,0,2,27)
    ShowMessage("【ミニ】")
    ShowMessage("ピーナッツと交換なら、いいぞ！")
    ShowMessageFace("vgirl_fc1",2,0,2,28)
    ShowMessage("【ヴァニラ】")
    ShowMessage("それでよかったの～？")
    ShowMessageFace("ruka_fc1",0,0,2,29)
    ShowMessage("【ルカ】")
    ShowMessage("悲しい事件でした……")
    249(bytes(0x04,0x08,0x6f,0x3a,0x0c,0x52,0x50,0x47,0x3a,0x3a,0x4d,0x45,0x08,0x3a,0x0a,0x40,0x6e,0x61,0x6d,0x65,0x49,0x22,0x09,0x6c,0x76,0x75,0x70,0x06,0x3a,0x06,0x45,0x54,0x3a,0x0b,0x40,0x70,0x69,0x74,0x63,0x68,0x69,0x69,0x3a,0x0c,0x40,0x76,0x6f,0x6c,0x75,0x6d,0x65,0x69,0x69))
    ShowMessageFace("",0,0,2,30)
    ShowMessage("真犯人を指摘し、事件を解決に導いた！")
    ShowMessage("報酬として、装備品が贈られる！")
    250(bytes(0x04,0x08,0x6f,0x3a,0x0c,0x52,0x50,0x47,0x3a,0x3a,0x53,0x45,0x08,0x3a,0x0a,0x40,0x6e,0x61,0x6d,0x65,0x49,0x22,0x0a,0x49,0x74,0x65,0x6d,0x31,0x06,0x3a,0x06,0x45,0x54,0x3a,0x0b,0x40,0x70,0x69,0x74,0x63,0x68,0x69,0x69,0x3a,0x0c,0x40,0x76,0x6f,0x6c,0x75,0x6d,0x65,0x69,0x55))
    ChangeInventoryWeapon(1009,0,0,1,false)
    Wait(60)
    ChangeVariable(121,121,2,0,1)
    RunCommonEvent(901)
    EndEventProcessing()
    0()
   IfPlayerPicksChoice(3,null)
    ShowMessageFace("ruka_fc1",0,0,2,31)
    ShowMessage("【ルカ】")
    ShowMessage("事件の犯人は……そうか、パピだ！")
    ShowMessageFace("dragonp_fc1",0,0,2,32)
    ShowMessage("【パピ】")
    ShowMessage("あたしはずっと、働いているみんなを眺めていたぞ。")
    ShowMessage("この部屋にはいなかった事を、プチ達が知っているのだ。")
    ShowMessageFace("ruka_fc1",0,0,2,33)
    ShowMessage("【ルカ】")
    ShowMessage("ん！？　まちがったかな……")
    ShowMessageFace("",0,0,2,34)
    ShowMessage("犯人当てに失敗し、事件は迷宮入りとなった……")
    ShowMessage("残念賞として、アクセサリが贈られる！")
    250(bytes(0x04,0x08,0x6f,0x3a,0x0c,0x52,0x50,0x47,0x3a,0x3a,0x53,0x45,0x08,0x3a,0x0a,0x40,0x6e,0x61,0x6d,0x65,0x49,0x22,0x0a,0x49,0x74,0x65,0x6d,0x31,0x06,0x3a,0x06,0x45,0x54,0x3a,0x0b,0x40,0x70,0x69,0x74,0x63,0x68,0x69,0x69,0x3a,0x0c,0x40,0x76,0x6f,0x6c,0x75,0x6d,0x65,0x69,0x55))
    ChangeInventoryArmor(3661,0,0,1,false)
    Wait(60)
    ChangeVariable(121,121,2,0,1)
    RunCommonEvent(901)
    EndEventProcessing()
    0()
   404()
   0()
  IfPlayerPicksChoice(1,null)
   EndEventProcessing()
   0()
  404()
  0()



EVENT   11
 PAGE   1
  // condition: variable 126 >= 0
  ShowMessageFace("ruka_fc1",0,0,2,1)
  ShowMessage("【ルカ】")
  ShowMessage("さて、関係者はここに全員集まりましたね。")
  ShowMessage("それでは、このエヴァ殺人事件の謎解きを始めましょう……")
  ShowMessageFace("alice_fc5",0,0,2,2)
  ShowMessage("【アリス】")
  ShowMessage("ふん、余は無実だぞ。")
  ShowMessageFace("sonia_fc2",3,0,2,3)
  ShowMessage("【ソニア】")
  ShowMessage("ちょっとぉ……")
  ShowMessage("私を疑ってるんじゃないでしょうね？")
  ShowMessageFace("saki_fc1",2,0,2,4)
  ShowMessage("【サキ】")
  ShowMessage("あたし、人殺しなんてしないよ～！")
  ShowMessage("サキはみんなのアイドルだもんね。")
  ShowMessageFace("succubus_fc1",1,0,2,5)
  ShowMessage("【サキュバス】")
  ShowMessage("エヴァにはきっと、天罰が下ったのでしょう。")
  ShowMessageFace("ruka_fc1",0,0,2,6)
  ShowMessage("【ルカ】")
  ShowMessage("おっと、その前に……")
  ShowMessage("最後にもう一度、状況や証拠を確認しておこうかな。")
  TemporaryRemoveEvent()
  0()
 PAGE   2
  // condition: variable 126 >= 1
  ShowMessageFace("ruka_fc1",0,0,2,1)
  ShowMessage("【ルカ】")
  ShowMessage("さて、関係者はここに全員集まりましたね。")
  ShowMessage("それでは、このアリス殺人事件の謎解きを始めましょう……")
  ShowMessageFace("granberia_fc4",0,0,2,2)
  ShowMessage("【グランベリア】")
  ShowMessage("主君を斬ったりなどしない……ほ、本当だぞ。")
  ShowMessageFace("arumaeruma_fc2",7,0,2,3)
  ShowMessage("【アルマエルマ】")
  ShowMessage("私は、何も知らないわよ……")
  ShowMessageFace("tamamo_fc1",3,0,2,4)
  ShowMessage("【たまも】")
  ShowMessage("魔王様……なんとおいたわしいのじゃ。")
  ShowMessageFace("erbetie_fc1",0,0,2,5)
  ShowMessage("【エルベティエ】")
  ShowMessage("次の魔王は、誰になるのかしら……？")
  ShowMessageFace("ruka_fc1",0,0,2,6)
  ShowMessage("【ルカ】")
  ShowMessage("おっと、その前に……")
  ShowMessage("最後にもう一度、状況や証拠を確認しておこうかな。")
  TemporaryRemoveEvent()
  0()
 PAGE   3
  // condition: variable 126 >= 2
  ShowMessageFace("ruka_fc1",0,0,2,1)
  ShowMessage("【ルカ】")
  ShowMessage("さて、関係者はここに全員集まりましたね。")
  ShowMessage("それでは、このイリアス殺人事件の謎解きを始めましょう……")
  ShowMessageFace("rucyfinac_fc1",4,0,2,2)
  ShowMessage("【ルシフィナちゃん】")
  ShowMessage("あ、あたしじゃないよ……！？")
  ShowMessage("あたし、何も知らないよ……！？")
  ShowMessageFace("micaelac_fc1",0,0,2,3)
  ShowMessage("【ミカエラちゃん】")
  ShowMessage("私は、関係ないから……")
  ShowMessageFace("stein_fc2",1,0,2,4)
  ShowMessage("【プロメスティン】")
  ShowMessage("何者の仕業か知りませんが、良い仕事をしましたね。")
  ShowMessageFace("eden_fc1",2,0,2,5)
  ShowMessage("【エデン】")
  ShowMessage("イリアス様ー！　おおお、イリアス様ー！")
  ShowMessageFace("ruka_fc1",0,0,2,6)
  ShowMessage("【ルカ】")
  ShowMessage("おっと、その前に……")
  ShowMessage("最後にもう一度、状況や証拠を確認しておこうかな。")
  TemporaryRemoveEvent()
  0()
 PAGE   4
  // condition: variable 126 >= 3
  ShowMessageFace("ruka_fc1",0,0,2,1)
  ShowMessage("【ルカ】")
  ShowMessage("さて、関係者はここに全員集まりましたね。")
  ShowMessage("それでは、このシルフ殺人事件の謎解きを始めましょう……")
  ShowMessageFace("gnome_fc1",1,0,2,2)
  ShowMessage("【ノーム】")
  ShowMessage("……………………")
  ShowMessageFace("undine_fc1",0,0,2,3)
  ShowMessage("【ウンディーネ】")
  ShowMessage("燃えているトカゲが怪しいわね……")
  ShowMessageFace("salamander_fc1",2,0,2,4)
  ShowMessage("【サラマンダー】")
  ShowMessage("私がシルフを殺したりするものか。")
  ShowMessage("ウンディーネ殺しなら、きっと私の仕業だがな。")
  ShowMessageFace("nuruko_fc1",0,0,2,5)
  ShowMessage("【ヌルコ】")
  ShowMessage("きゅー！　きゅきゅー！")
  ShowMessageFace("ruka_fc1",0,0,2,6)
  ShowMessage("【ルカ】")
  ShowMessage("おっと、その前に……")
  ShowMessage("最後にもう一度、状況や証拠を確認しておこうかな。")
  TemporaryRemoveEvent()
  0()
 PAGE   5
  // condition: variable 126 >= 4
  ShowMessageFace("ruka_fc1",0,0,2,1)
  ShowMessage("【ルカ】")
  ShowMessage("さて、関係者はここに全員集まりましたね。")
  ShowMessage("それでは、このミニ殺人事件の謎解きを始めましょう……")
  ShowMessageFace("pramia_fc1",2,0,2,2)
  ShowMessage("【プチ】")
  ShowMessage("今日はずっと、宿の物資搬入で大忙しだったんだから！")
  ShowMessage("私は犯人じゃないよー！")
  ShowMessageFace("gob_fc1",3,0,2,3)
  ShowMessage("【ゴブ】")
  ShowMessage("その荷物を運んでたボクも、大忙しだったんだよ！")
  ShowMessage("ボクじゃないからね！")
  ShowMessageFace("vgirl_fc1",2,0,2,4)
  ShowMessage("【ヴァニラ】")
  ShowMessage("その品を用意した我も、大忙しだったのだ！")
  ShowMessage("我ではないぞ！")
  ShowMessageFace("dragonp_fc1",2,0,2,5)
  ShowMessage("【パピ】")
  ShowMessage("その作業を眺めていて、あたしも大忙しだったのだ！")
  ShowMessage("あたしではないのだ！")
  ShowMessageFace("ruka_fc1",0,0,2,6)
  ShowMessage("【ルカ】")
  ShowMessage("おっと、その前に……")
  ShowMessage("最後にもう一度、状況や証拠を確認しておこうかな。")
  TemporaryRemoveEvent()
  0()



EVENT   12
 PAGE   1
  // condition: variable 126 >= 3
  ShowMessageFace("ruka_fc1",0,0,2,1)
  ShowMessage("【ルカ】")
  ShowMessage("壺の中に、水が溜まってるな。")
  ShowMessage("……んっ？　内側にススが……")
  0()
 PAGE   2
  // condition: variable 126 >= 4
  0()



EVENT   13
 PAGE   1
  250(bytes(0x04,0x08,0x6f,0x3a,0x0c,0x52,0x50,0x47,0x3a,0x3a,0x53,0x45,0x08,0x3a,0x0a,0x40,0x6e,0x61,0x6d,0x65,0x49,0x22,0x0a,0x43,0x68,0x65,0x73,0x74,0x06,0x3a,0x06,0x45,0x54,0x3a,0x0b,0x40,0x70,0x69,0x74,0x63,0x68,0x69,0x69,0x3a,0x0c,0x40,0x76,0x6f,0x6c,0x75,0x6d,0x65,0x69,0x55))
  205(0,bytes(0x04,0x08,0x6f,0x3a,0x13,0x52,0x50,0x47,0x3a,0x3a,0x4d,0x6f,0x76,0x65,0x52,0x6f,0x75,0x74,0x65,0x09,0x3a,0x0c,0x40,0x72,0x65,0x70,0x65,0x61,0x74,0x46,0x3a,0x0f,0x40,0x73,0x6b,0x69,0x70,0x70,0x61,0x62,0x6c,0x65,0x46,0x3a,0x0a,0x40,0x77,0x61,0x69,0x74,0x54,0x3a,0x0a,0x40,0x6c,0x69,0x73,0x74,0x5b,0x0b,0x6f,0x3a,0x15,0x52,0x50,0x47,0x3a,0x3a,0x4d,0x6f,0x76,0x65,0x43,0x6f,0x6d,0x6d,0x61,0x6e,0x64,0x07,0x3a,0x0a,0x40,0x63,0x6f,0x64,0x65,0x69,0x29,0x3a,0x10,0x40,0x70,0x61,0x72,0x61,0x6d,0x65,0x74,0x65,0x72,0x73,0x5b,0x00,0x6f,0x3b,0x0a,0x07,0x3b,0x0b,0x69,0x16,0x3b,0x0c,0x5b,0x00,0x6f,0x3b,0x0a,0x07,0x3b,0x0b,0x69,0x14,0x3b,0x0c,0x5b,0x06,0x69,0x08,0x6f,0x3b,0x0a,0x07,0x3b,0x0b,0x69,0x17,0x3b,0x0c,0x5b,0x00,0x6f,0x3b,0x0a,0x07,0x3b,0x0b,0x69,0x14,0x3b,0x0c,0x5b,0x06,0x69,0x08,0x6f,0x3b,0x0a,0x07,0x3b,0x0b,0x69,0x00,0x3b,0x0c,0x5b,0x00))
  ChangeSwitch(45,45,0)
  RunCommonEvent(903)
  0()
 PAGE   2
  // condition: switch 45 is ON
  0()



EVENT   14
 PAGE   1
  250(bytes(0x04,0x08,0x6f,0x3a,0x0c,0x52,0x50,0x47,0x3a,0x3a,0x53,0x45,0x08,0x3a,0x0a,0x40,0x6e,0x61,0x6d,0x65,0x49,0x22,0x0a,0x43,0x68,0x65,0x73,0x74,0x06,0x3a,0x06,0x45,0x54,0x3a,0x0b,0x40,0x70,0x69,0x74,0x63,0x68,0x69,0x69,0x3a,0x0c,0x40,0x76,0x6f,0x6c,0x75,0x6d,0x65,0x69,0x55))
  205(0,bytes(0x04,0x08,0x6f,0x3a,0x13,0x52,0x50,0x47,0x3a,0x3a,0x4d,0x6f,0x76,0x65,0x52,0x6f,0x75,0x74,0x65,0x09,0x3a,0x0c,0x40,0x72,0x65,0x70,0x65,0x61,0x74,0x46,0x3a,0x0f,0x40,0x73,0x6b,0x69,0x70,0x70,0x61,0x62,0x6c,0x65,0x46,0x3a,0x0a,0x40,0x77,0x61,0x69,0x74,0x54,0x3a,0x0a,0x40,0x6c,0x69,0x73,0x74,0x5b,0x0b,0x6f,0x3a,0x15,0x52,0x50,0x47,0x3a,0x3a,0x4d,0x6f,0x76,0x65,0x43,0x6f,0x6d,0x6d,0x61,0x6e,0x64,0x07,0x3a,0x0a,0x40,0x63,0x6f,0x64,0x65,0x69,0x29,0x3a,0x10,0x40,0x70,0x61,0x72,0x61,0x6d,0x65,0x74,0x65,0x72,0x73,0x5b,0x00,0x6f,0x3b,0x0a,0x07,0x3b,0x0b,0x69,0x16,0x3b,0x0c,0x5b,0x00,0x6f,0x3b,0x0a,0x07,0x3b,0x0b,0x69,0x14,0x3b,0x0c,0x5b,0x06,0x69,0x08,0x6f,0x3b,0x0a,0x07,0x3b,0x0b,0x69,0x17,0x3b,0x0c,0x5b,0x00,0x6f,0x3b,0x0a,0x07,0x3b,0x0b,0x69,0x14,0x3b,0x0c,0x5b,0x06,0x69,0x08,0x6f,0x3b,0x0a,0x07,0x3b,0x0b,0x69,0x00,0x3b,0x0c,0x5b,0x00))
  ChangeSwitch(46,46,0)
  RunCommonEvent(903)
  0()
 PAGE   2
  // condition: switch 46 is ON
  0()
