// EVENT 0077
Name "Skill: Play 371-380"

ChangeVariable(11,11,0,2,1,5)
If(1,100,0,372,0)
 If(1,11,0,1,0)
  ShowMessageFace("cirqueb_fc3",0,0,2,1)
  ShowMessage("【ロザ】")
  ShowMessage("私はロザ、海賊女王よ……")
  ShowMessageFace("",0,0,2,2)
  ShowMessage("ロザは決め台詞の練習をしている……")
  EndEventProcessing()
  0()
 EndIf()
 If(1,11,0,2,0)
  ShowMessageFace("cirqueb_fc3",0,0,2,3)
  ShowMessage("【ロザ】")
  ShowMessage("ふふっ……")
  355("interrupt_skill(3296)")
  EndEventProcessing()
  0()
 EndIf()
 If(1,11,0,3,0)
  ShowMessageFace("cirqueb_fc3",0,0,2,4)
  ShowMessage("【ロザ】")
  ShowMessage("荒れ狂うわ……")
  355("interrupt_skill(1821)")
  EndEventProcessing()
  0()
 EndIf()
 If(1,11,0,4,0)
  ShowMessageFace("cirqueb_fc3",0,0,2,5)
  ShowMessage("【ロザ】")
  ShowMessage("これを食べなさい……")
  ShowMessage("私と同じで、ヌルヌルよ……")
  ShowMessageFace("",0,0,2,6)
  ShowMessage("ロザからの差し入れだ！")
  250(bytes(0x04,0x08,0x6f,0x3a,0x0c,0x52,0x50,0x47,0x3a,0x3a,0x53,0x45,0x08,0x3a,0x0a,0x40,0x6e,0x61,0x6d,0x65,0x49,0x22,0x0a,0x49,0x74,0x65,0x6d,0x31,0x06,0x3a,0x06,0x45,0x54,0x3a,0x0b,0x40,0x70,0x69,0x74,0x63,0x68,0x69,0x69,0x3a,0x0c,0x40,0x76,0x6f,0x6c,0x75,0x6d,0x65,0x69,0x55))
  ChangeInventory_Item(328,0,0,1)
  ShowMessageFace("",0,0,2,7)
  ShowMessage("「うなぎ」を手に入れた！")
  EndEventProcessing()
  0()
 EndIf()
 If(1,11,0,5,0)
  ShowMessageFace("cirqueb_fc3",0,0,2,8)
  ShowMessage("【ロザ】")
  ShowMessage("本気で行くわ……！")
  355("interrupt_skill(3294)")
  EndEventProcessing()
  0()
 EndIf()
 0()
EndIf()
If(1,100,0,374,0)
 If(1,11,0,1,0)
  ShowMessageFace("cirqueb_fc4",0,0,2,9)
  ShowMessage("【アリア・ラミア】")
  ShowMessage("魔眼の力です……")
  355("interrupt_skill(2551)")
  EndEventProcessing()
  0()
 EndIf()
 If(1,11,0,2,0)
  ShowMessageFace("cirqueb_fc4",0,0,2,10)
  ShowMessage("【アリア・ラミア】")
  ShowMessage("祈りましょう……")
  355("interrupt_skill(3302)")
  EndEventProcessing()
  0()
 EndIf()
 If(1,11,0,3,0)
  ShowMessageFace("cirqueb_fc4",0,0,2,11)
  ShowMessage("【アリア・ラミア】")
  ShowMessage("冬眠しましょう……")
  313(0,374,0,11)
  ShowMessageFace("",0,0,2,12)
  ShowMessage("アリア・ラミアは居眠りしている……")
  EndEventProcessing()
  0()
 EndIf()
 If(1,11,0,4,0)
  ShowMessageFace("cirqueb_fc4",0,0,2,13)
  ShowMessage("【アリア・ラミア】")
  ShowMessage("ラミア乙のポーズ……")
  ShowMessageFace("",0,0,2,14)
  ShowMessage("アリア・ラミアは決めポーズを繰り出した！")
  ShowMessage("しかし誰も見ていない……")
  EndEventProcessing()
  0()
 EndIf()
 If(1,11,0,5,0)
  ShowMessageFace("cirqueb_fc4",0,0,2,15)
  ShowMessage("【アリア・ラミア】")
  ShowMessage("尾で失礼……")
  355("interrupt_skill(2741)")
  EndEventProcessing()
  0()
 EndIf()
 0()
EndIf()
If(1,100,0,376,0)
 If(1,11,0,1,0)
  ShowMessageFace("cirqueb_fc5",0,0,2,16)
  ShowMessage("【リフレツィア】")
  ShowMessage("うふふっ……")
  355("interrupt_skill(3296)")
  EndEventProcessing()
  0()
 EndIf()
 If(1,11,0,2,0)
  ShowMessageFace("cirqueb_fc5",0,0,2,17)
  ShowMessage("【リフレツィア】")
  ShowMessage("戦いの前に、腹を膨らまさないと……")
  ShowMessageFace("",0,0,2,18)
  ShowMessage("リフレツィアは食料を盗み食いしている……")
  EndEventProcessing()
  0()
 EndIf()
 If(1,11,0,3,0)
  ShowMessageFace("cirqueb_fc5",0,0,2,19)
  ShowMessage("【リフレツィア】")
  ShowMessage("気合いを入れるわ……！")
  355("interrupt_skill(3294)")
  EndEventProcessing()
  0()
 EndIf()
 If(1,11,0,4,0)
  ShowMessageFace("cirqueb_fc5",0,0,2,20)
  ShowMessage("【リフレツィア】")
  ShowMessage("ほら、これをあげるわ。")
  ShowMessageFace("",0,0,2,21)
  ShowMessage("リフレツィアからの差し入れだ！")
  250(bytes(0x04,0x08,0x6f,0x3a,0x0c,0x52,0x50,0x47,0x3a,0x3a,0x53,0x45,0x08,0x3a,0x0a,0x40,0x6e,0x61,0x6d,0x65,0x49,0x22,0x0a,0x49,0x74,0x65,0x6d,0x31,0x06,0x3a,0x06,0x45,0x54,0x3a,0x0b,0x40,0x70,0x69,0x74,0x63,0x68,0x69,0x69,0x3a,0x0c,0x40,0x76,0x6f,0x6c,0x75,0x6d,0x65,0x69,0x55))
  ChangeInventory_Item(409,0,0,1)
  ShowMessageFace("",0,0,2,22)
  ShowMessage("「あまあまだんご」を手に入れた！")
  EndEventProcessing()
  0()
 EndIf()
 If(1,11,0,5,0)
  ShowMessageFace("cirqueb_fc5",0,0,2,23)
  ShowMessage("【リフレツィア】")
  ShowMessage("吹っ飛びなさい……！")
  355("interrupt_skill(2831)")
  EndEventProcessing()
  0()
 EndIf()
 0()
EndIf()
If(1,100,0,378,0)
 If(1,11,0,1,0)
  ShowMessageFace("cirqueb_fc6",0,0,2,24)
  ShowMessage("【ゼノビア】")
  ShowMessage("祈りましょう……")
  355("interrupt_skill(3302)")
  EndEventProcessing()
  0()
 EndIf()
 If(1,11,0,2,0)
  ShowMessageFace("cirqueb_fc6",0,0,2,25)
  ShowMessage("【ゼノビア】")
  ShowMessage("お祝いをしましょう……")
  ShowMessageFace("",0,0,2,26)
  ShowMessage("ゼノビアはクラッカーを鳴らした！")
  ShowMessage("しかし誰も相手にしない……")
  EndEventProcessing()
  0()
 EndIf()
 If(1,11,0,3,0)
  ShowMessageFace("cirqueb_fc6",0,0,2,27)
  ShowMessage("【ゼノビア】")
  ShowMessage("さあ、楽しみましょう……")
  ShowMessageFace("",0,0,2,28)
  ShowMessage("ゼノビアは陽気に歌って踊っている……")
  EndEventProcessing()
  0()
 EndIf()
 If(1,11,0,4,0)
  ShowMessageFace("cirqueb_fc6",0,0,2,29)
  ShowMessage("【ゼノビア】")
  ShowMessage("これを食べて下さい……")
  ShowMessageFace("",0,0,2,30)
  ShowMessage("ゼノビアからの差し入れだ！")
  250(bytes(0x04,0x08,0x6f,0x3a,0x0c,0x52,0x50,0x47,0x3a,0x3a,0x53,0x45,0x08,0x3a,0x0a,0x40,0x6e,0x61,0x6d,0x65,0x49,0x22,0x0a,0x49,0x74,0x65,0x6d,0x31,0x06,0x3a,0x06,0x45,0x54,0x3a,0x0b,0x40,0x70,0x69,0x74,0x63,0x68,0x69,0x69,0x3a,0x0c,0x40,0x76,0x6f,0x6c,0x75,0x6d,0x65,0x69,0x55))
  ChangeInventory_Item(421,0,0,1)
  ShowMessageFace("",0,0,2,31)
  ShowMessage("「エクレア」を手に入れた！")
  EndEventProcessing()
  0()
 EndIf()
 If(1,11,0,5,0)
  ShowMessageFace("cirqueb_fc6",0,0,2,32)
  ShowMessage("【ゼノビア】")
  ShowMessage("触手の裁きを……")
  355("interrupt_skill(2776)")
  EndEventProcessing()
  0()
 EndIf()
 0()
EndIf()
0()
